# Created by Octave 4.0.0, Tue Mar 03 18:14:04 2020 -03 <koltona@vader>
# name: A
# type: matrix
# rows: 100
# columns: 2
 1310.575 1
 1317.725 0
 1324.875 1
 1332.025 0
 1339.175 0
 1346.325 1
 1353.475 0
 1360.625 0
 1367.775 0
 1374.925 1
 1382.075 0
 1389.225 1
 1396.375 0
 1403.525 0
 1410.675 0
 1417.825 1
 1424.975 1
 1432.125 0
 1439.275 0
 1446.425 1
 1453.575 0
 1460.725 1
 1467.875 1
 1475.025 2
 1482.175 3
 1489.325 2
 1496.475 2
 1503.625 0
 1510.775 2
 1517.925 1
 1525.075 1
 1532.225 5
 1539.375 4
 1546.525 3
 1553.675 5
 1560.825 4
 1567.975 2
 1575.125 2
 1582.275 2
 1589.425 4
 1596.575 4
 1603.725 3
 1610.875 1
 1618.025 1
 1625.175 1
 1632.325 2
 1639.475 2
 1646.625 4
 1653.775 3
 1660.925 4
 1668.075 2
 1675.225 3
 1682.375 4
 1689.525 3
 1696.675 6
 1703.825 4
 1710.975 1
 1718.125 1
 1725.275 4
 1732.425 3
 1739.575 5
 1746.725 2
 1753.875 1
 1761.025 5
 1768.175 0
 1775.325 4
 1782.475 2
 1789.625 2
 1796.775 0
 1803.925 0
 1811.075 2
 1818.225 5
 1825.375 1
 1832.525 0
 1839.675 1
 1846.825 2
 1853.975 0
 1861.125 0
 1868.275 2
 1875.425 2
 1882.575 0
 1889.725 0
 1896.875 0
 1904.025 0
 1911.175 1
 1918.325 0
 1925.475 0
 1932.625 1
 1939.775 1
 1946.925 1
 1954.075 0
 1961.225 0
 1968.375 0
 1975.525 0
 1982.675 0
 1989.825 0
 1996.975 0
 2004.125 0
 2011.275 0
 2018.425 1


