L=132768
f=1
T=1e-08
Dt=0.1
log monitorinng
fourier transforms activated
FINITE TEMPERATURE
THERMAL SEED =12312313
RESTART = 1000000
DOUBLEPRECISION activated
DISORDER desactivated
CUDA
FORCE DRIVEN
initialization done
