1 0.610614 -0.000656427 0.1 1.49506
1 0.499322 0.612274 0.05 0.87686
1 0.403125 0.501538 0.025 0.55492
1 0.322918 0.403098 0.0125 0.375701
1 0.253784 0.323303 0.00625 0.268979
1 0.20099 0.254555 0.003125 0.200976
1 0.1568 0.200745 0.0015625 0.152728
1 0.122038 0.15598 0.00078125 0.119172
1 0.0935378 0.122246 0.000390625 0.0911882
1 0.0742833 0.0932223 0.000195313 0.0717903
1 0.0564902 0.0744761 9.76563e-05 0.0554331
1 0.0459981 0.0564552 4.88281e-05 0.0452742
1 0.0337685 0.0458422 2.44141e-05 0.0331153
1 0.0266633 0.0336764 1.2207e-05 0.0271044
1 0.0214215 0.0265361 6.10352e-06 0.0217718
1 0.0159766 0.0214219 3.05176e-06 0.0158506
1 0.012098 0.0160647 1.52588e-06 0.0121188
1 0.00889209 0.0123123 7.62939e-07 0.00884596
1 0.00738178 0.00881924 3.8147e-07 0.00736273
1 0.00572381 0.00728239 1.90735e-07 0.00577125
1 0.00396542 0.00568945 9.53674e-08 0.00400705
1 0.00290864 0.00400063 4.76837e-08 0.00282645
1 0.00252781 0.00285836 2.38419e-08 0.00257675
1 0.00206039 0.00255685 1.19209e-08 0.00206807
