1tiempo 2velocity 3center_of_mass 4roughness 5posmax 6T0 7f0 8uparabola
1 0.795859 10.0796 0.00701654 114150 0.02 0.8 0
2 0.659231 10.1455 0.0163176 43005 0.02 0.8 0
3 0.522389 10.1977 0.024151 21020 0.02 0.8 0
4 0.41327 10.2391 0.029608 105695 0.02 0.8 0
5 0.343424 10.2734 0.0334035 93578 0.02 0.8 0
6 0.296916 10.3031 0.0359863 5202 0.02 0.8 0
7 0.271556 10.3303 0.0379669 14057 0.02 0.8 0
8 0.258086 10.3561 0.0397185 55944 0.02 0.8 0
9 0.254677 10.3815 0.0415966 17423 0.02 0.8 0
10 0.250003 10.4065 0.0437284 10344 0.02 0.8 0
20 0.251394 10.6541 0.0680612 112793 0.02 0.8 0
30 0.281208 10.9227 0.0979993 17031 0.02 0.8 0
40 0.282374 11.2056 0.124813 58860 0.02 0.8 0
50 0.273091 11.4823 0.145435 120804 0.02 0.8 0
60 0.273228 11.7563 0.170532 65678 0.02 0.8 0
70 0.280016 12.0335 0.200548 16114 0.02 0.8 0
80 0.278721 12.3129 0.228216 79723 0.02 0.8 0
90 0.27701 12.5908 0.256718 55465 0.02 0.8 0
100 0.278705 12.8671 0.286565 63902 0.02 0.8 0
110 0.280272 13.1447 0.31761 35758 0.02 0.8 0
200 0.279812 15.6462 0.647775 69652 0.02 0.8 0
300 0.281145 18.4334 1.081 85219 0.02 0.8 0
400 0.281842 21.2207 1.57781 77332 0.02 0.8 0
500 0.275188 24.0109 2.12451 75258 0.02 0.8 0
600 0.275669 26.7956 2.70998 49326 0.02 0.8 0
700 0.278511 29.5808 3.36913 87480 0.02 0.8 0
800 0.278265 32.3702 4.04748 98414 0.02 0.8 0
900 0.281095 35.1604 4.76499 117097 0.02 0.8 0
1000 0.279505 37.9429 5.5247 120363 0.02 0.8 0
1100 0.279055 40.7313 6.33846 109885 0.02 0.8 0
2000 0.278686 65.8557 14.816 132615 0.02 0.8 0
3000 0.277928 93.7574 26.5138 82810 0.02 0.8 0
4000 0.280628 121.654 40.0328 107683 0.02 0.8 0
5000 0.282902 149.54 55.012 120875 0.02 0.8 0
6000 0.277294 177.454 71.3246 38341 0.02 0.8 0
7000 0.277729 205.355 89.4622 81097 0.02 0.8 0
8000 0.281861 233.246 108.402 124652 0.02 0.8 0
9000 0.278773 261.153 128.644 81287 0.02 0.8 0
10000 0.282198 289.023 150.23 59574 0.02 0.8 0
11000 0.278675 316.919 172.85 25919 0.02 0.8 0
20000 0.283791 568.258 417.181 84781 0.02 0.8 0
30000 0.279679 847.708 758.639 46149 0.02 0.8 0
1 0.268965 1010.12 984.612 111337 0.02 0.79 0
2 0.271446 1010.15 984.66 5946 0.02 0.79 0
3 0.273181 1010.18 984.705 43309 0.02 0.79 0
4 0.269713 1010.21 984.742 63145 0.02 0.79 0
5 0.271639 1010.23 984.778 3107 0.02 0.79 0
6 0.268533 1010.26 984.836 37666 0.02 0.79 0
7 0.268899 1010.29 984.873 77789 0.02 0.79 0
8 0.267998 1010.31 984.905 127762 0.02 0.79 0
9 0.269929 1010.34 984.953 20597 0.02 0.79 0
10 0.266739 1010.37 984.995 14811 0.02 0.79 0
20 0.268465 1010.64 985.471 99346 0.02 0.79 0
30 0.270007 1010.9 985.955 21854 0.02 0.79 0
40 0.268441 1011.17 986.325 118487 0.02 0.79 0
50 0.266953 1011.44 986.665 121481 0.02 0.79 0
60 0.265111 1011.7 987.147 48828 0.02 0.79 0
70 0.266979 1011.97 987.538 111336 0.02 0.79 0
80 0.265153 1012.24 987.95 98763 0.02 0.79 0
90 0.267514 1012.5 988.419 50727 0.02 0.79 0
100 0.268124 1012.77 988.888 77916 0.02 0.79 0
110 0.268046 1013.04 989.322 95728 0.02 0.79 0
200 0.266307 1015.43 993.311 41330 0.02 0.79 0
300 0.268181 1018.11 997.926 58750 0.02 0.79 0
400 0.269475 1020.77 1002.09 537 0.02 0.79 0
500 0.264809 1023.44 1006.43 49193 0.02 0.79 0
600 0.265737 1026.1 1010.93 43313 0.02 0.79 0
700 0.266244 1028.76 1015.35 90599 0.02 0.79 0
800 0.268978 1031.43 1019.58 96959 0.02 0.79 0
900 0.266891 1034.1 1023.73 114587 0.02 0.79 0
1000 0.266566 1036.76 1027.88 15776 0.02 0.79 0
1100 0.269802 1039.43 1032.37 109885 0.02 0.79 0
2000 0.26511 1063.43 1070.6 4684 0.02 0.79 0
3000 0.263735 1090.09 1114.49 45128 0.02 0.79 0
4000 0.267682 1116.72 1158.11 30804 0.02 0.79 0
5000 0.268138 1143.38 1203.28 27770 0.02 0.79 0
6000 0.269331 1170.05 1246.76 70242 0.02 0.79 0
7000 0.264947 1196.72 1291.6 88367 0.02 0.79 0
8000 0.269006 1223.38 1336.75 21672 0.02 0.79 0
9000 0.266764 1250.04 1382.51 26792 0.02 0.79 0
10000 0.266872 1276.69 1427.34 65370 0.02 0.79 0
11000 0.266545 1303.36 1472.72 49883 0.02 0.79 0
20000 0.268746 1543.38 1901.77 84455 0.02 0.79 0
30000 0.26312 1810.03 2418.81 67256 0.02 0.79 0
1 0.257392 2010.17 2844.18 105500 0.02 0.78 0
2 0.260594 2010.2 2844.23 14688 0.02 0.78 0
3 0.261972 2010.22 2844.3 112293 0.02 0.78 0
4 0.258332 2010.25 2844.36 73482 0.02 0.78 0
5 0.258789 2010.28 2844.42 97307 0.02 0.78 0
6 0.256117 2010.3 2844.51 131092 0.02 0.78 0
7 0.256412 2010.33 2844.56 27888 0.02 0.78 0
8 0.255702 2010.35 2844.6 116030 0.02 0.78 0
9 0.257656 2010.38 2844.65 57200 0.02 0.78 0
10 0.254111 2010.4 2844.69 79737 0.02 0.78 0
20 0.25405 2010.66 2845.4 77931 0.02 0.78 0
30 0.257534 2010.91 2846.06 90168 0.02 0.78 0
40 0.256976 2011.17 2846.53 56852 0.02 0.78 0
50 0.254475 2011.42 2847.14 42168 0.02 0.78 0
60 0.251689 2011.68 2847.8 18271 0.02 0.78 0
70 0.254856 2011.93 2848.43 60429 0.02 0.78 0
80 0.255331 2012.18 2849.17 122321 0.02 0.78 0
90 0.254578 2012.44 2849.73 18211 0.02 0.78 0
100 0.256348 2012.69 2850.43 32934 0.02 0.78 0
110 0.25564 2012.95 2851.13 577 0.02 0.78 0
200 0.25589 2015.23 2856.76 54333 0.02 0.78 0
300 0.254031 2017.77 2863.9 20287 0.02 0.78 0
400 0.255707 2020.31 2870.36 75922 0.02 0.78 0
500 0.250686 2022.85 2876.91 121339 0.02 0.78 0
600 0.252059 2025.39 2883.55 107243 0.02 0.78 0
700 0.252176 2027.93 2889.98 90693 0.02 0.78 0
800 0.255681 2030.47 2895.44 122593 0.02 0.78 0
900 0.254529 2033 2901.65 103718 0.02 0.78 0
1000 0.254492 2035.54 2907.43 9495 0.02 0.78 0
1100 0.253909 2038.08 2914.01 38356 0.02 0.78 0
2000 0.252024 2060.92 2970.03 112506 0.02 0.78 0
3000 0.253532 2086.3 3033.58 51022 0.02 0.78 0
4000 0.256864 2111.63 3096.45 46327 0.02 0.78 0
5000 0.256485 2136.96 3161.61 73090 0.02 0.78 0
6000 0.253273 2162.3 3224.39 117181 0.02 0.78 0
7000 0.251266 2187.64 3286.91 20858 0.02 0.78 0
8000 0.256721 2212.99 3351.78 120052 0.02 0.78 0
9000 0.252722 2238.36 3417.47 85983 0.02 0.78 0
10000 0.254436 2263.71 3479.81 47506 0.02 0.78 0
11000 0.2534 2289.07 3543.87 28278 0.02 0.78 0
20000 0.255127 2517.28 4150.71 27947 0.02 0.78 0
30000 0.251959 2770.75 4877.06 29661 0.02 0.78 0
1 0.242532 3010.2 5597.44 39319 0.02 0.77 0
2 0.246027 3010.22 5597.52 112880 0.02 0.77 0
3 0.247551 3010.25 5597.63 26221 0.02 0.77 0
4 0.246038 3010.27 5597.74 22190 0.02 0.77 0
5 0.247786 3010.3 5597.85 120514 0.02 0.77 0
6 0.245255 3010.32 5598.01 128519 0.02 0.77 0
7 0.244699 3010.35 5598.11 69629 0.02 0.77 0
8 0.243977 3010.37 5598.22 127066 0.02 0.77 0
9 0.244608 3010.39 5598.28 33881 0.02 0.77 0
10 0.240984 3010.42 5598.34 112500 0.02 0.77 0
20 0.241767 3010.66 5599.08 82256 0.02 0.77 0
30 0.24337 3010.9 5599.82 124917 0.02 0.77 0
40 0.242698 3011.14 5600.53 82911 0.02 0.77 0
50 0.240511 3011.39 5601.21 25478 0.02 0.77 0
60 0.239892 3011.63 5602.1 32445 0.02 0.77 0
70 0.241829 3011.87 5603.06 16114 0.02 0.77 0
80 0.238662 3012.11 5604.29 45601 0.02 0.77 0
90 0.239567 3012.35 5604.97 18211 0.02 0.77 0
100 0.244488 3012.59 5605.7 911 0.02 0.77 0
110 0.240841 3012.83 5606.57 79973 0.02 0.77 0
200 0.243016 3014.99 5614.29 63461 0.02 0.77 0
300 0.240763 3017.4 5622.94 24712 0.02 0.77 0
400 0.241593 3019.8 5631 109024 0.02 0.77 0
500 0.238408 3022.21 5639.37 115923 0.02 0.77 0
600 0.239936 3024.62 5647.12 54283 0.02 0.77 0
700 0.240231 3027.02 5655.44 38130 0.02 0.77 0
800 0.243537 3029.42 5663.11 98140 0.02 0.77 0
900 0.241393 3031.83 5670.94 25929 0.02 0.77 0
1000 0.242187 3034.24 5678.46 125975 0.02 0.77 0
1100 0.243612 3036.64 5686.99 109885 0.02 0.77 0
2000 0.238357 3058.29 5760.21 22387 0.02 0.77 0
3000 0.237606 3082.36 5841.51 93360 0.02 0.77 0
4000 0.243641 3106.38 5921.9 30257 0.02 0.77 0
5000 0.24235 3130.4 6005.79 103350 0.02 0.77 0
6000 0.23986 3154.43 6085.65 117181 0.02 0.77 0
7000 0.239506 3178.47 6166.69 132034 0.02 0.77 0
8000 0.242255 3202.51 6247.68 27284 0.02 0.77 0
9000 0.238741 3226.56 6332.28 125242 0.02 0.77 0
10000 0.240186 3250.59 6411.67 57440 0.02 0.77 0
11000 0.240424 3274.63 6492.76 73321 0.02 0.77 0
20000 0.242149 3491.05 7244.27 11954 0.02 0.77 0
30000 0.238024 3731.37 8133.53 90046 0.02 0.77 0
40000 0.24214 3971.67 9063 57162 0.02 0.77 0
1 0.230764 4010.22 9214.01 24461 0.02 0.76 0
2 0.233147 4010.25 9214.13 65737 0.02 0.76 0
3 0.235197 4010.27 9214.26 5659 0.02 0.76 0
4 0.232344 4010.29 9214.41 5289 0.02 0.76 0
5 0.234716 4010.32 9214.51 10611 0.02 0.76 0
6 0.232834 4010.34 9214.67 98989 0.02 0.76 0
7 0.232616 4010.36 9214.78 2477 0.02 0.76 0
8 0.231265 4010.39 9214.86 127748 0.02 0.76 0
9 0.231686 4010.41 9214.94 789 0.02 0.76 0
10 0.227089 4010.43 9215.01 74758 0.02 0.76 0
20 0.229662 4010.66 9216.21 66630 0.02 0.76 0
30 0.23169 4010.89 9217.18 78138 0.02 0.76 0
40 0.228941 4011.12 9218.12 2693 0.02 0.76 0
50 0.226387 4011.35 9219.08 76120 0.02 0.76 0
60 0.224792 4011.57 9220.2 92860 0.02 0.76 0
70 0.230696 4011.8 9221.22 72681 0.02 0.76 0
80 0.227362 4012.03 9222.55 114270 0.02 0.76 0
90 0.225276 4012.26 9223.82 81444 0.02 0.76 0
100 0.233421 4012.48 9224.78 52547 0.02 0.76 0
110 0.228672 4012.71 9225.65 50152 0.02 0.76 0
200 0.228444 4014.76 9235.18 6566 0.02 0.76 0
300 0.225922 4017.04 9246.54 24712 0.02 0.76 0
400 0.229831 4019.31 9257.17 27271 0.02 0.76 0
500 0.223051 4021.59 9268.05 18754 0.02 0.76 0
600 0.227418 4023.86 9278.41 19943 0.02 0.76 0
700 0.226472 4026.13 9288.41 49077 0.02 0.76 0
800 0.228519 4028.41 9297.83 68903 0.02 0.76 0
900 0.227984 4030.68 9307.94 25929 0.02 0.76 0
1000 0.229001 4032.96 9317.29 41960 0.02 0.76 0
1100 0.229354 4035.23 9328.61 57215 0.02 0.76 0
2000 0.225545 4055.7 9420.91 90573 0.02 0.76 0
3000 0.224599 4078.45 9523.06 9028 0.02 0.76 0
4000 0.227769 4101.17 9624.56 13225 0.02 0.76 0
5000 0.229598 4123.89 9723.77 101677 0.02 0.76 0
6000 0.227394 4146.63 9827.76 77929 0.02 0.76 0
7000 0.226121 4169.36 9927.17 3436 0.02 0.76 0
8000 0.230529 4192.08 10028 96022 0.02 0.76 0
9000 0.225816 4214.8 10132.4 98450 0.02 0.76 0
10000 0.227519 4237.49 10232 69860 0.02 0.76 0
11000 0.225833 4260.19 10333.8 50782 0.02 0.76 0
20000 0.231239 4464.77 11263.6 86497 0.02 0.76 0
30000 0.224935 4692.11 12318.1 21081 0.02 0.76 0
40000 0.226486 4919.38 13405.7 67536 0.02 0.76 0
1 0.217978 5010.26 13844.7 108538 0.02 0.75 0
2 0.219765 5010.28 13844.8 115400 0.02 0.75 0
3 0.221254 5010.3 13844.9 132433 0.02 0.75 0
4 0.21733 5010.32 13845.1 128234 0.02 0.75 0
5 0.219352 5010.35 13845.3 96244 0.02 0.75 0
6 0.216871 5010.37 13845.5 63326 0.02 0.75 0
7 0.216148 5010.39 13845.7 23543 0.02 0.75 0
8 0.214422 5010.41 13845.8 40354 0.02 0.75 0
9 0.215661 5010.43 13846 43107 0.02 0.75 0
10 0.213258 5010.45 13846.1 44069 0.02 0.75 0
20 0.216846 5010.67 13847.3 51255 0.02 0.75 0
30 0.218802 5010.89 13848.5 88354 0.02 0.75 0
40 0.217265 5011.1 13849.2 118094 0.02 0.75 0
50 0.215067 5011.32 13850.5 62071 0.02 0.75 0
60 0.214125 5011.53 13851.6 81706 0.02 0.75 0
70 0.216808 5011.75 13852.6 92767 0.02 0.75 0
80 0.213287 5011.96 13853.8 400 0.02 0.75 0
90 0.212988 5012.18 13855 14875 0.02 0.75 0
100 0.217908 5012.39 13856.2 5208 0.02 0.75 0
110 0.215872 5012.61 13857.5 108901 0.02 0.75 0
200 0.214415 5014.54 13868.6 28143 0.02 0.75 0
300 0.215724 5016.68 13881.5 74335 0.02 0.75 0
400 0.219304 5018.83 13893.8 8264 0.02 0.75 0
500 0.211405 5020.98 13907.3 82085 0.02 0.75 0
600 0.21487 5023.12 13919.5 55300 0.02 0.75 0
700 0.213287 5025.26 13930.7 69647 0.02 0.75 0
800 0.214616 5027.41 13942.1 67922 0.02 0.75 0
900 0.216501 5029.55 13954.9 78748 0.02 0.75 0
1000 0.215917 5031.69 13966.7 39392 0.02 0.75 0
1100 0.215063 5033.84 13978.8 65031 0.02 0.75 0
2000 0.213951 5053.12 14089.3 23167 0.02 0.75 0
3000 0.212579 5074.56 14208.5 69797 0.02 0.75 0
4000 0.215794 5095.98 14326.3 94551 0.02 0.75 0
5000 0.21687 5117.38 14449.3 93256 0.02 0.75 0
6000 0.214242 5138.8 14567.2 111042 0.02 0.75 0
7000 0.213593 5160.23 14680.9 20858 0.02 0.75 0
8000 0.217565 5181.64 14799.4 132508 0.02 0.75 0
9000 0.213211 5203.06 14919.7 89511 0.02 0.75 0
10000 0.214153 5224.46 15037.3 29632 0.02 0.75 0
11000 0.210768 5245.86 15157.7 117955 0.02 0.75 0
20000 0.217931 5438.59 16222.8 83821 0.02 0.75 0
30000 0.212808 5652.74 17452.9 56466 0.02 0.75 0
40000 0.214191 5866.86 18679.5 60218 0.02 0.75 0
1 0.204575 6010.28 19519.8 46045 0.02 0.74 0
2 0.207114 6010.31 19520 39609 0.02 0.74 0
3 0.208116 6010.33 19520.1 7059 0.02 0.74 0
4 0.204351 6010.35 19520.3 78906 0.02 0.74 0
5 0.205981 6010.37 19520.4 81631 0.02 0.74 0
6 0.204208 6010.39 19520.6 117534 0.02 0.74 0
7 0.204348 6010.41 19520.7 59488 0.02 0.74 0
8 0.203306 6010.43 19520.9 122159 0.02 0.74 0
9 0.205033 6010.45 19521 107469 0.02 0.74 0
10 0.201739 6010.47 19521.1 74758 0.02 0.74 0
20 0.202502 6010.67 19522.1 112710 0.02 0.74 0
30 0.207191 6010.87 19523.6 69170 0.02 0.74 0
40 0.202529 6011.08 19524.9 99359 0.02 0.74 0
50 0.200953 6011.28 19526.3 76120 0.02 0.74 0
60 0.201475 6011.48 19527.4 48122 0.02 0.74 0
70 0.202794 6011.68 19528.9 72681 0.02 0.74 0
80 0.199816 6011.88 19530.4 78131 0.02 0.74 0
90 0.202018 6012.08 19531.5 109788 0.02 0.74 0
100 0.205782 6012.29 19533.1 124676 0.02 0.74 0
110 0.201766 6012.49 19534.9 95412 0.02 0.74 0
200 0.200879 6014.3 19546.7 8624 0.02 0.74 0
300 0.202966 6016.32 19560.5 52243 0.02 0.74 0
400 0.205624 6018.33 19574 65987 0.02 0.74 0
500 0.197838 6020.35 19588.1 116255 0.02 0.74 0
600 0.200226 6022.36 19601.2 101836 0.02 0.74 0
700 0.200214 6024.37 19613.3 94888 0.02 0.74 0
800 0.201594 6026.38 19626.1 124798 0.02 0.74 0
900 0.202269 6028.4 19640.9 120053 0.02 0.74 0
1000 0.20278 6030.41 19653.1 93871 0.02 0.74 0
1100 0.203149 6032.42 19667.6 131953 0.02 0.74 0
2000 0.19986 6050.53 19786.4 47436 0.02 0.74 0
3000 0.201893 6070.65 19915.1 9387 0.02 0.74 0
4000 0.203557 6090.73 20043.9 64746 0.02 0.74 0
5000 0.20233 6110.81 20181.4 101677 0.02 0.74 0
6000 0.200842 6130.9 20315.6 10653 0.02 0.74 0
7000 0.200328 6151 20446.3 132207 0.02 0.74 0
8000 0.204388 6171.09 20581.3 55245 0.02 0.74 0
9000 0.200145 6191.18 20713.4 75611 0.02 0.74 0
10000 0.202144 6211.26 20843.7 117552 0.02 0.74 0
11000 0.200911 6231.36 20976.3 9991 0.02 0.74 0
20000 0.203677 6412.27 22200.5 47954 0.02 0.74 0
30000 0.199304 6613.22 23599.8 73827 0.02 0.74 0
40000 0.200504 6814.06 25013.6 63089 0.02 0.74 0
1 0.189198 7010.31 26390.3 114816 0.02 0.73 0
2 0.192319 7010.33 26390.5 39609 0.02 0.73 0
3 0.194584 7010.35 26390.6 3759 0.02 0.73 0
4 0.191659 7010.37 26390.8 6764 0.02 0.73 0
5 0.193368 7010.39 26390.9 24453 0.02 0.73 0
6 0.193198 7010.41 26391.1 5590 0.02 0.73 0
7 0.193264 7010.43 26391.2 8288 0.02 0.73 0
8 0.190449 7010.45 26391.3 76475 0.02 0.73 0
9 0.190585 7010.47 26391.5 84601 0.02 0.73 0
10 0.187606 7010.49 26391.6 85262 0.02 0.73 0
20 0.191462 7010.68 26392.9 14704 0.02 0.73 0
30 0.19267 7010.87 26394.7 814 0.02 0.73 0
40 0.18804 7011.06 26396.4 113472 0.02 0.73 0
50 0.186639 7011.24 26397.7 55996 0.02 0.73 0
60 0.188302 7011.43 26399.2 26674 0.02 0.73 0
70 0.191508 7011.62 26400.5 53468 0.02 0.73 0
80 0.187719 7011.81 26402.2 400 0.02 0.73 0
90 0.186192 7012 26403.6 130212 0.02 0.73 0
100 0.191251 7012.19 26405.4 124676 0.02 0.73 0
110 0.191515 7012.38 26407.3 39175 0.02 0.73 0
200 0.185915 7014.07 26421.1 126118 0.02 0.73 0
300 0.18748 7015.95 26438 34676 0.02 0.73 0
400 0.190496 7017.84 26453 109316 0.02 0.73 0
500 0.183798 7019.72 26469.6 115558 0.02 0.73 0
600 0.186471 7021.6 26485.6 12668 0.02 0.73 0
700 0.187112 7023.48 26501.3 110591 0.02 0.73 0
800 0.189284 7025.35 26515.7 27368 0.02 0.73 0
900 0.188386 7027.24 26533.1 67434 0.02 0.73 0
1000 0.190637 7029.11 26548.5 104892 0.02 0.73 0
1100 0.188199 7030.99 26563.9 68305 0.02 0.73 0
2000 0.187641 7047.9 26701.5 65226 0.02 0.73 0
3000 0.188101 7066.71 26850.7 10126 0.02 0.73 0
4000 0.191801 7085.49 26997 18903 0.02 0.73 0
5000 0.191072 7104.26 27151.1 16468 0.02 0.73 0
6000 0.188201 7123.03 27301.8 34117 0.02 0.73 0
7000 0.186817 7141.81 27448.4 129471 0.02 0.73 0
8000 0.190354 7160.59 27601.1 63642 0.02 0.73 0
9000 0.187306 7179.38 27744.3 76822 0.02 0.73 0
10000 0.189163 7198.17 27892.6 29632 0.02 0.73 0
11000 0.187411 7216.94 28039.7 88267 0.02 0.73 0
20000 0.190228 7386.02 29406.3 26446 0.02 0.73 0
30000 0.186052 7573.91 30955.9 49 0.02 0.73 0
40000 0.186198 7761.81 32568.4 17307 0.02 0.73 0
50000 0.187928 7949.78 34131.9 85736 0.02 0.73 0
1 0.178463 8010.34 34643.8 94256 0.02 0.72 0
2 0.181881 8010.36 34643.9 33923 0.02 0.72 0
3 0.183301 8010.38 34644.1 11347 0.02 0.72 0
4 0.179738 8010.39 34644.3 36586 0.02 0.72 0
5 0.181361 8010.41 34644.4 81444 0.02 0.72 0
6 0.180085 8010.43 34644.6 78079 0.02 0.72 0
7 0.180356 8010.45 34644.7 50875 0.02 0.72 0
8 0.179459 8010.47 34644.8 11062 0.02 0.72 0
9 0.180074 8010.48 34645 107469 0.02 0.72 0
10 0.176001 8010.5 34645.1 127724 0.02 0.72 0
20 0.177764 8010.68 34647 118042 0.02 0.72 0
30 0.179311 8010.86 34648.9 88354 0.02 0.72 0
40 0.178096 8011.03 34650.5 15771 0.02 0.72 0
50 0.174997 8011.21 34652.1 49288 0.02 0.72 0
60 0.176021 8011.39 34653.6 5094 0.02 0.72 0
70 0.177204 8011.56 34655.1 53468 0.02 0.72 0
80 0.172873 8011.74 34656.8 104643 0.02 0.72 0
90 0.172043 8011.91 34658.8 31436 0.02 0.72 0
100 0.180965 8012.09 34660.8 47854 0.02 0.72 0
110 0.176884 8012.26 34662.6 24922 0.02 0.72 0
200 0.174817 8013.84 34677.8 94830 0.02 0.72 0
300 0.174787 8015.59 34695.3 88848 0.02 0.72 0
400 0.176067 8017.35 34712.4 8264 0.02 0.72 0
500 0.172757 8019.1 34730.2 4653 0.02 0.72 0
600 0.177352 8020.86 34748.4 58370 0.02 0.72 0
700 0.173945 8022.61 34764.8 58431 0.02 0.72 0
800 0.17759 8024.36 34780.2 124798 0.02 0.72 0
900 0.175914 8026.12 34797.2 77375 0.02 0.72 0
1000 0.177224 8027.87 34815.1 84220 0.02 0.72 0
1100 0.17728 8029.61 34832.6 130346 0.02 0.72 0
2000 0.171816 8045.37 34986.5 91139 0.02 0.72 0
3000 0.173814 8062.88 35155.2 9387 0.02 0.72 0
4000 0.177097 8080.39 35321.5 5826 0.02 0.72 0
5000 0.177315 8097.85 35496.5 93256 0.02 0.72 0
6000 0.175649 8115.34 35669.9 24222 0.02 0.72 0
7000 0.173639 8132.81 35843.8 34793 0.02 0.72 0
8000 0.178916 8150.29 36019 49247 0.02 0.72 0
9000 0.172754 8167.77 36190.7 30881 0.02 0.72 0
10000 0.175086 8185.25 36360 22661 0.02 0.72 0
11000 0.173714 8202.74 36522 37583 0.02 0.72 0
20000 0.175929 8360.21 38019.3 11954 0.02 0.72 0
30000 0.172625 8535.08 39674.2 26771 0.02 0.72 0
40000 0.174608 8709.96 41374.5 28442 0.02 0.72 0
50000 0.173945 8884.91 43100.3 128163 0.02 0.72 0
1 0.164527 9010.37 44371.7 118818 0.02 0.71 0
2 0.168462 9010.38 44371.8 63058 0.02 0.71 0
3 0.1693 9010.4 44372 126448 0.02 0.71 0
4 0.166615 9010.42 44372.3 100819 0.02 0.71 0
5 0.168821 9010.43 44372.6 70762 0.02 0.71 0
6 0.167405 9010.45 44372.9 26431 0.02 0.71 0
7 0.168133 9010.47 44373 4403 0.02 0.71 0
8 0.166254 9010.48 44373.2 22387 0.02 0.71 0
9 0.167476 9010.5 44373.4 95907 0.02 0.71 0
10 0.163931 9010.52 44373.6 59036 0.02 0.71 0
20 0.165284 9010.68 44375.3 121159 0.02 0.71 0
30 0.166836 9010.85 44377.5 17696 0.02 0.71 0
40 0.162089 9011.01 44379.5 132626 0.02 0.71 0
50 0.161476 9011.17 44381.6 52157 0.02 0.71 0
60 0.160752 9011.33 44383.5 71671 0.02 0.71 0
70 0.163402 9011.5 44385.1 130517 0.02 0.71 0
80 0.161612 9011.66 44386.7 400 0.02 0.71 0
90 0.161352 9011.82 44388.6 52958 0.02 0.71 0
100 0.165356 9011.98 44390.6 19547 0.02 0.71 0
110 0.163767 9012.15 44393 49096 0.02 0.71 0
200 0.16295 9013.61 44409.7 37761 0.02 0.71 0
300 0.161025 9015.22 44431 88618 0.02 0.71 0
400 0.164374 9016.85 44452.2 26898 0.02 0.71 0
500 0.159791 9018.47 44471.3 19160 0.02 0.71 0
600 0.161666 9020.09 44492.7 37977 0.02 0.71 0
700 0.162427 9021.71 44512.1 2922 0.02 0.71 0
800 0.163134 9023.33 44528.7 103453 0.02 0.71 0
900 0.162367 9024.96 44548.5 125689 0.02 0.71 0
1000 0.163738 9026.58 44569.6 61504 0.02 0.71 0
1100 0.164763 9028.19 44589.6 22075 0.02 0.71 0
2000 0.159561 9042.76 44756 53788 0.02 0.71 0
3000 0.159388 9058.94 44940.9 95259 0.02 0.71 0
4000 0.163256 9075.12 45123.2 15881 0.02 0.71 0
5000 0.164943 9091.27 45319.4 9488 0.02 0.71 0
6000 0.161955 9107.46 45514.4 24222 0.02 0.71 0
7000 0.161899 9123.62 45703 102871 0.02 0.71 0
8000 0.164624 9139.8 45900.4 52644 0.02 0.71 0
9000 0.160844 9155.99 46085.7 62554 0.02 0.71 0
10000 0.161346 9172.15 46276.9 95463 0.02 0.71 0
11000 0.161353 9188.32 46465.2 21426 0.02 0.71 0
20000 0.164082 9334.05 48170.5 105033 0.02 0.71 0
30000 0.160087 9495.97 49974.3 95920 0.02 0.71 0
40000 0.161974 9657.85 51795.2 76268 0.02 0.71 0
50000 0.162622 9819.77 53634.6 43689 0.02 0.71 0
60000 0.16496 9981.72 55586.4 96255 0.02 0.71 0
1 0.151171 10010.4 55922.2 102149 0.02 0.7 0
2 0.155685 10010.4 55922.4 89215 0.02 0.7 0
3 0.158335 10010.4 55922.6 35518 0.02 0.7 0
4 0.1547 10010.4 55922.8 50291 0.02 0.7 0
5 0.156927 10010.5 55922.9 61310 0.02 0.7 0
6 0.15424 10010.5 55923.1 38036 0.02 0.7 0
7 0.154971 10010.5 55923.2 69283 0.02 0.7 0
8 0.152853 10010.5 55923.4 23008 0.02 0.7 0
9 0.154089 10010.5 55923.5 92708 0.02 0.7 0
10 0.150838 10010.5 55923.7 54963 0.02 0.7 0
20 0.151535 10010.7 55925.4 104142 0.02 0.7 0
30 0.154914 10010.8 55927.4 118529 0.02 0.7 0
40 0.150539 10011 55929.5 77967 0.02 0.7 0
50 0.149895 10011.1 55931.1 11804 0.02 0.7 0
60 0.150034 10011.3 55933 48343 0.02 0.7 0
70 0.150712 10011.4 55935 49557 0.02 0.7 0
80 0.148853 10011.6 55937.3 122321 0.02 0.7 0
90 0.149096 10011.7 55939.6 88955 0.02 0.7 0
100 0.154749 10011.9 55942 87343 0.02 0.7 0
110 0.151952 10012 55943.9 49096 0.02 0.7 0
200 0.149129 10013.4 55960.9 90656 0.02 0.7 0
300 0.150353 10014.9 55981.4 92906 0.02 0.7 0
400 0.152769 10016.4 56002.7 114797 0.02 0.7 0
500 0.143256 10017.9 56023.8 72953 0.02 0.7 0
600 0.149447 10019.4 56044.2 111862 0.02 0.7 0
700 0.148293 10020.9 56063.5 44189 0.02 0.7 0
800 0.150987 10022.4 56082.6 60287 0.02 0.7 0
900 0.150864 10023.9 56103.6 61781 0.02 0.7 0
1000 0.150673 10025.4 56122.9 58690 0.02 0.7 0
1100 0.150367 10026.9 56143.2 63123 0.02 0.7 0
2000 0.147942 10040.3 56321.3 130434 0.02 0.7 0
3000 0.148411 10055.2 56533.7 124726 0.02 0.7 0
4000 0.151808 10070.1 56739.7 80509 0.02 0.7 0
5000 0.151798 10085 56936.1 127999 0.02 0.7 0
6000 0.15069 10099.9 57137.1 24222 0.02 0.7 0
7000 0.149787 10114.8 57339.6 30569 0.02 0.7 0
8000 0.15173 10129.7 57555.9 31700 0.02 0.7 0
9000 0.148202 10144.6 57757.1 85983 0.02 0.7 0
10000 0.1481 10159.5 57965.9 119237 0.02 0.7 0
11000 0.147783 10174.4 58167.7 55809 0.02 0.7 0
20000 0.148624 10308.5 60033.4 90800 0.02 0.7 0
30000 0.145998 10457.6 62080.9 3959 0.02 0.7 0
40000 0.148465 10606.5 64182.7 54450 0.02 0.7 0
50000 0.148721 10755.4 66266.4 20496 0.02 0.7 0
60000 0.151874 10904.2 68457.4 77751 0.02 0.7 0
1 0.138131 11010.4 69942.6 38136 0.02 0.69 0
2 0.141795 11010.4 69942.8 116750 0.02 0.69 0
3 0.143726 11010.4 69943 67578 0.02 0.69 0
4 0.140543 11010.5 69943.3 71187 0.02 0.69 0
5 0.143092 11010.5 69943.5 18664 0.02 0.69 0
6 0.141599 11010.5 69943.9 65100 0.02 0.69 0
7 0.142433 11010.5 69944.1 57806 0.02 0.69 0
8 0.141449 11010.5 69944.3 131067 0.02 0.69 0
9 0.142069 11010.5 69944.6 57673 0.02 0.69 0
10 0.138693 11010.5 69944.8 18090 0.02 0.69 0
20 0.14076 11010.7 69947.8 120157 0.02 0.69 0
30 0.141391 11010.8 69949.8 69170 0.02 0.69 0
40 0.138844 11011 69952 69354 0.02 0.69 0
50 0.136324 11011.1 69954.5 109528 0.02 0.69 0
60 0.136329 11011.2 69956.4 27346 0.02 0.69 0
70 0.139423 11011.4 69958.7 16114 0.02 0.69 0
80 0.134228 11011.5 69961.1 108181 0.02 0.69 0
90 0.135241 11011.6 69963.5 58816 0.02 0.69 0
100 0.140112 11011.8 69966.1 86073 0.02 0.69 0
110 0.140421 11011.9 69968.5 66891 0.02 0.69 0
200 0.137237 11013.1 69987 36414 0.02 0.69 0
300 0.13595 11014.5 70012.2 25390 0.02 0.69 0
400 0.139839 11015.9 70034 1528 0.02 0.69 0
500 0.133758 11017.2 70057 121681 0.02 0.69 0
600 0.138005 11018.6 70079.9 24041 0.02 0.69 0
700 0.136658 11020 70100.4 57123 0.02 0.69 0
800 0.137881 11021.3 70123.1 96601 0.02 0.69 0
900 0.138426 11022.7 70141.8 111380 0.02 0.69 0
1000 0.139163 11024.1 70162.9 58690 0.02 0.69 0
1100 0.137438 11025.4 70183.5 66281 0.02 0.69 0
2000 0.134899 11037.7 70383.3 45273 0.02 0.69 0
3000 0.135036 11051.3 70615.3 80383 0.02 0.69 0
4000 0.13851 11065 70845.6 94551 0.02 0.69 0
5000 0.139354 11078.6 71069.4 126966 0.02 0.69 0
6000 0.136359 11092.2 71307.5 24222 0.02 0.69 0
7000 0.135444 11105.8 71528.7 62448 0.02 0.69 0
8000 0.137738 11119.4 71767.2 27284 0.02 0.69 0
9000 0.133785 11133 71996.7 22828 0.02 0.69 0
10000 0.136817 11146.6 72224 48925 0.02 0.69 0
11000 0.13556 11160.2 72458.4 90259 0.02 0.69 0
20000 0.139355 11282.5 74500.7 44886 0.02 0.69 0
30000 0.134103 11418.7 76759.7 80760 0.02 0.69 0
40000 0.137221 11554.8 79050.4 26631 0.02 0.69 0
50000 0.136982 11690.9 81363.7 129200 0.02 0.69 0
60000 0.139551 11826.9 83737.1 8653 0.02 0.69 0
70000 0.136127 11963 86050.9 18522 0.02 0.69 0
1 0.126701 12010.4 86898.1 14941 0.02 0.68 0
2 0.130519 12010.4 86898.2 69171 0.02 0.68 0
3 0.132427 12010.5 86898.4 33367 0.02 0.68 0
4 0.12878 12010.5 86898.7 99545 0.02 0.68 0
5 0.130214 12010.5 86898.9 78503 0.02 0.68 0
6 0.128329 12010.5 86899.2 35942 0.02 0.68 0
7 0.12796 12010.5 86899.4 16806 0.02 0.68 0
8 0.12651 12010.5 86899.7 87180 0.02 0.68 0
9 0.128153 12010.5 86900 9587 0.02 0.68 0
10 0.125424 12010.5 86900.4 104547 0.02 0.68 0
20 0.125968 12010.7 86903.5 104315 0.02 0.68 0
30 0.129414 12010.8 86906.5 13833 0.02 0.68 0
40 0.125201 12010.9 86908.2 83609 0.02 0.68 0
50 0.123705 12011.1 86910.6 43065 0.02 0.68 0
60 0.125771 12011.2 86914 59626 0.02 0.68 0
70 0.126856 12011.3 86916.2 3791 0.02 0.68 0
80 0.124187 12011.4 86919.3 122321 0.02 0.68 0
90 0.123678 12011.6 86921.7 125462 0.02 0.68 0
100 0.128217 12011.7 86923.3 23866 0.02 0.68 0
110 0.126935 12011.8 86925.3 54158 0.02 0.68 0
200 0.12556 12012.9 86951.2 126785 0.02 0.68 0
300 0.123396 12014.2 86977.2 88848 0.02 0.68 0
400 0.127222 12015.4 87003.3 106294 0.02 0.68 0
500 0.119288 12016.6 87030.1 104816 0.02 0.68 0
600 0.123953 12017.9 87054.9 10312 0.02 0.68 0
700 0.124219 12019.1 87078.6 57904 0.02 0.68 0
800 0.125145 12020.4 87104.8 128531 0.02 0.68 0
900 0.125508 12021.6 87128.9 121290 0.02 0.68 0
1000 0.125847 12022.9 87152.6 111478 0.02 0.68 0
1100 0.12558 12024.1 87177 130346 0.02 0.68 0
2000 0.123287 12035.2 87396.6 45873 0.02 0.68 0
3000 0.121705 12047.6 87645.1 94522 0.02 0.68 0
4000 0.126905 12060 87892.5 78894 0.02 0.68 0
5000 0.126276 12072.3 88141.7 96390 0.02 0.68 0
6000 0.12293 12084.7 88401.1 7392 0.02 0.68 0
7000 0.122847 12097.1 88639.7 50108 0.02 0.68 0
8000 0.125816 12109.4 88880.9 14995 0.02 0.68 0
9000 0.123101 12121.8 89124.4 18061 0.02 0.68 0
10000 0.124738 12134.1 89351.8 28016 0.02 0.68 0
11000 0.123124 12146.4 89594.1 14595 0.02 0.68 0
20000 0.125224 12257.5 91750.6 74092 0.02 0.68 0
30000 0.12105 12380.9 94181.2 124030 0.02 0.68 0
40000 0.124997 12504.4 96711.3 60218 0.02 0.68 0
50000 0.123601 12627.9 99153.9 51305 0.02 0.68 0
60000 0.126501 12751.3 101707 38905 0.02 0.68 0
70000 0.123429 12874.8 104116 33009 0.02 0.68 0
80000 0.121509 12998.4 106723 117851 0.02 0.68 0
1 0.111517 13010.4 107002 6662 0.02 0.67 0
2 0.11589 13010.5 107002 105800 0.02 0.67 0
3 0.118423 13010.5 107002 12522 0.02 0.67 0
4 0.115892 13010.5 107002 94773 0.02 0.67 0
5 0.11822 13010.5 107002 20415 0.02 0.67 0
6 0.116234 13010.5 107002 82801 0.02 0.67 0
7 0.116323 13010.5 107003 126835 0.02 0.67 0
8 0.114939 13010.5 107003 116690 0.02 0.67 0
9 0.115828 13010.5 107003 107469 0.02 0.67 0
10 0.112661 13010.6 107003 93841 0.02 0.67 0
20 0.116883 13010.7 107006 90968 0.02 0.67 0
30 0.11623 13010.8 107010 128913 0.02 0.67 0
40 0.112128 13010.9 107013 110971 0.02 0.67 0
50 0.110766 13011 107015 68315 0.02 0.67 0
60 0.112139 13011.1 107019 71671 0.02 0.67 0
70 0.114004 13011.2 107022 105173 0.02 0.67 0
80 0.11014 13011.3 107025 13353 0.02 0.67 0
90 0.11062 13011.5 107028 99261 0.02 0.67 0
100 0.114637 13011.6 107030 62145 0.02 0.67 0
110 0.112273 13011.7 107033 123402 0.02 0.67 0
200 0.111244 13012.7 107060 4157 0.02 0.67 0
300 0.111371 13013.8 107089 72682 0.02 0.67 0
400 0.114609 13014.9 107115 94480 0.02 0.67 0
500 0.107993 13016 107144 3756 0.02 0.67 0
600 0.110896 13017.2 107171 27995 0.02 0.67 0
700 0.111964 13018.3 107193 576 0.02 0.67 0
800 0.113569 13019.4 107219 4449 0.02 0.67 0
900 0.112921 13020.5 107240 11280 0.02 0.67 0
1000 0.112549 13021.6 107267 98987 0.02 0.67 0
1100 0.113593 13022.7 107297 11315 0.02 0.67 0
2000 0.10898 13032.7 107553 56032 0.02 0.67 0
3000 0.109996 13043.9 107823 76718 0.02 0.67 0
4000 0.112898 13055 108096 29927 0.02 0.67 0
5000 0.113574 13066.1 108351 109703 0.02 0.67 0
6000 0.113097 13077.2 108608 60558 0.02 0.67 0
7000 0.110575 13088.3 108862 64267 0.02 0.67 0
8000 0.113492 13099.4 109121 14995 0.02 0.67 0
9000 0.109527 13110.5 109368 7016 0.02 0.67 0
10000 0.110033 13121.6 109613 29632 0.02 0.67 0
11000 0.11224 13132.7 109869 117158 0.02 0.67 0
20000 0.113981 13232.8 112147 68582 0.02 0.67 0
30000 0.108629 13343.8 114699 20336 0.02 0.67 0
40000 0.111608 13454.9 117337 56168 0.02 0.67 0
50000 0.113731 13566 120025 39999 0.02 0.67 0
60000 0.113543 13677.1 122799 42685 0.02 0.67 0
70000 0.111395 13788.2 125520 1694 0.02 0.67 0
80000 0.108709 13899.5 128305 22247 0.02 0.67 0
1 0.0994399 14010.5 131121 39319 0.02 0.66 0
2 0.103381 14010.5 131121 54761 0.02 0.66 0
3 0.106059 14010.5 131121 3759 0.02 0.66 0
4 0.103639 14010.5 131121 70102 0.02 0.66 0
5 0.105993 14010.5 131121 96208 0.02 0.66 0
6 0.104272 14010.5 131122 57002 0.02 0.66 0
7 0.10534 14010.5 131122 14057 0.02 0.66 0
8 0.103571 14010.5 131122 23453 0.02 0.66 0
9 0.105063 14010.5 131122 100186 0.02 0.66 0
10 0.102412 14010.6 131123 45716 0.02 0.66 0
20 0.103059 14010.7 131125 55067 0.02 0.66 0
30 0.105224 14010.8 131128 78226 0.02 0.66 0
40 0.101815 14010.9 131131 91525 0.02 0.66 0
50 0.0989419 14011 131134 122829 0.02 0.66 0
60 0.0998539 14011.1 131137 80929 0.02 0.66 0
70 0.101344 14011.2 131140 96987 0.02 0.66 0
80 0.0970907 14011.3 131144 63341 0.02 0.66 0
90 0.0992459 14011.4 131146 81468 0.02 0.66 0
100 0.102577 14011.5 131150 116454 0.02 0.66 0
110 0.100506 14011.6 131152 30771 0.02 0.66 0
200 0.098175 14012.4 131178 129865 0.02 0.66 0
300 0.0992985 14013.4 131208 103486 0.02 0.66 0
400 0.103026 14014.4 131238 48742 0.02 0.66 0
500 0.0950325 14015.4 131270 115773 0.02 0.66 0
600 0.0997334 14016.4 131295 126283 0.02 0.66 0
700 0.0987777 14017.4 131321 69924 0.02 0.66 0
800 0.101558 14018.4 131349 113404 0.02 0.66 0
900 0.099008 14019.4 131376 85830 0.02 0.66 0
1000 0.101732 14020.4 131401 4179 0.02 0.66 0
1100 0.102193 14021.4 131429 78152 0.02 0.66 0
2000 0.0977776 14030.4 131688 17045 0.02 0.66 0
3000 0.0970209 14040.3 131973 95572 0.02 0.66 0
4000 0.103718 14050.3 132262 31088 0.02 0.66 0
5000 0.102615 14060.2 132534 100720 0.02 0.66 0
6000 0.0996482 14070.1 132825 60558 0.02 0.66 0
7000 0.0980549 14080 133105 20858 0.02 0.66 0
8000 0.100951 14089.9 133395 27284 0.02 0.66 0
9000 0.0972474 14099.8 133671 38959 0.02 0.66 0
10000 0.0988695 14109.7 133956 31820 0.02 0.66 0
11000 0.0975499 14119.6 134237 121774 0.02 0.66 0
20000 0.101237 14208.9 136812 9511 0.02 0.66 0
30000 0.096292 14307.9 139736 65511 0.02 0.66 0
40000 0.0981926 14407.1 142720 104159 0.02 0.66 0
50000 0.0991088 14506.3 145622 31054 0.02 0.66 0
60000 0.100357 14605.6 148590 67244 0.02 0.66 0
70000 0.0984757 14704.7 151556 41111 0.02 0.66 0
80000 0.0969775 14803.8 154656 41488 0.02 0.66 0
90000 0.101523 14902.8 157841 126465 0.02 0.66 0
100000 0.0939295 15001.8 161000 129085 0.02 0.66 0
1 0.0903411 15010.5 161284 10389 0.02 0.65 0
2 0.0943062 15010.5 161284 12691 0.02 0.65 0
3 0.0962863 15010.5 161285 61726 0.02 0.65 0
4 0.0937981 15010.5 161285 129198 0.02 0.65 0
5 0.0961649 15010.5 161285 124998 0.02 0.65 0
6 0.0952873 15010.5 161286 81823 0.02 0.65 0
7 0.0955075 15010.5 161286 14992 0.02 0.65 0
8 0.094346 15010.5 161286 107549 0.02 0.65 0
9 0.0952772 15010.5 161286 1158 0.02 0.65 0
10 0.0924908 15010.6 161287 30895 0.02 0.65 0
20 0.09149 15010.6 161290 40448 0.02 0.65 0
30 0.0947692 15010.7 161293 112443 0.02 0.65 0
40 0.0893196 15010.8 161296 93487 0.02 0.65 0
50 0.0882306 15010.9 161299 16478 0.02 0.65 0
60 0.0877036 15011 161304 10271 0.02 0.65 0
70 0.0912198 15011.1 161307 16114 0.02 0.65 0
80 0.0872496 15011.2 161311 81181 0.02 0.65 0
90 0.0874672 15011.3 161315 60198 0.02 0.65 0
100 0.0905965 15011.4 161318 112759 0.02 0.65 0
110 0.0887606 15011.4 161320 30991 0.02 0.65 0
200 0.086615 15012.2 161351 69560 0.02 0.65 0
300 0.0896399 15013.1 161388 99370 0.02 0.65 0
400 0.091623 15014 161421 119742 0.02 0.65 0
500 0.0839303 15014.9 161458 115773 0.02 0.65 0
600 0.0859799 15015.8 161488 65024 0.02 0.65 0
700 0.0870516 15016.7 161518 100836 0.02 0.65 0
800 0.0899388 15017.5 161550 40486 0.02 0.65 0
900 0.0881064 15018.4 161581 103718 0.02 0.65 0
1000 0.0907507 15019.3 161612 4179 0.02 0.65 0
1100 0.0907319 15020.2 161647 44120 0.02 0.65 0
2000 0.0856733 15028.1 161949 56349 0.02 0.65 0
3000 0.0864476 15036.9 162296 101564 0.02 0.65 0
4000 0.0901724 15045.7 162635 74428 0.02 0.65 0
5000 0.0914229 15054.4 162951 103454 0.02 0.65 0
6000 0.0869328 15063.2 163267 72816 0.02 0.65 0
7000 0.0869722 15072 163559 11440 0.02 0.65 0
8000 0.0909346 15080.7 163856 96183 0.02 0.65 0
9000 0.0856368 15089.5 164142 10068 0.02 0.65 0
10000 0.0875948 15098.2 164447 112876 0.02 0.65 0
11000 0.0866843 15107 164755 115274 0.02 0.65 0
20000 0.0886701 15185.9 167529 120100 0.02 0.65 0
30000 0.0853827 15273.4 170592 71939 0.02 0.65 0
40000 0.0883284 15361.1 173666 16809 0.02 0.65 0
50000 0.0888861 15448.7 176641 60175 0.02 0.65 0
60000 0.0890485 15536.2 179675 100155 0.02 0.65 0
70000 0.0876196 15623.8 182650 91750 0.02 0.65 0
80000 0.0855016 15711.3 185708 90858 0.02 0.65 0
90000 0.0907203 15798.8 188780 92677 0.02 0.65 0
100000 0.0825817 15886.2 191852 9280 0.02 0.65 0
110000 0.0879061 15973.8 194992 35910 0.02 0.65 0
1 0.0770585 16010.5 196247 104994 0.02 0.64 0
2 0.0812661 16010.5 196247 56749 0.02 0.64 0
3 0.0838525 16010.5 196247 51709 0.02 0.64 0
4 0.0809055 16010.5 196247 66733 0.02 0.64 0
5 0.084066 16010.5 196248 16818 0.02 0.64 0
6 0.0824044 16010.5 196248 113479 0.02 0.64 0
7 0.0828937 16010.5 196248 92420 0.02 0.64 0
8 0.0818505 16010.5 196248 31843 0.02 0.64 0
9 0.08334 16010.6 196248 46268 0.02 0.64 0
10 0.0806087 16010.6 196249 126793 0.02 0.64 0
20 0.0813344 16010.6 196251 75075 0.02 0.64 0
30 0.0824944 16010.7 196255 102080 0.02 0.64 0
40 0.0792793 16010.8 196258 128519 0.02 0.64 0
50 0.0774175 16010.9 196263 65584 0.02 0.64 0
60 0.0771855 16011 196266 82611 0.02 0.64 0
70 0.0783983 16011 196270 67148 0.02 0.64 0
80 0.0745505 16011.1 196274 60486 0.02 0.64 0
90 0.0766607 16011.2 196277 60198 0.02 0.64 0
100 0.0805428 16011.3 196280 116696 0.02 0.64 0
110 0.0769941 16011.3 196284 26717 0.02 0.64 0
200 0.0765188 16012 196311 56969 0.02 0.64 0
300 0.076916 16012.8 196343 55789 0.02 0.64 0
400 0.0804947 16013.6 196374 10641 0.02 0.64 0
500 0.0742557 16014.4 196406 107013 0.02 0.64 0
600 0.0759832 16015.1 196433 81721 0.02 0.64 0
700 0.0753331 16015.9 196463 74011 0.02 0.64 0
800 0.0776778 16016.7 196496 70326 0.02 0.64 0
900 0.077133 16017.4 196529 49934 0.02 0.64 0
1000 0.0781691 16018.2 196557 46938 0.02 0.64 0
1100 0.0796123 16019 196591 105070 0.02 0.64 0
2000 0.0752001 16025.9 196884 67137 0.02 0.64 0
3000 0.0745698 16033.6 197206 79465 0.02 0.64 0
4000 0.0791705 16041.2 197527 65009 0.02 0.64 0
5000 0.0802153 16048.9 197808 124180 0.02 0.64 0
6000 0.0759618 16056.6 198118 38396 0.02 0.64 0
7000 0.0764342 16064.2 198419 81097 0.02 0.64 0
8000 0.0784433 16071.9 198717 67018 0.02 0.64 0
9000 0.0758283 16079.6 198994 21917 0.02 0.64 0
10000 0.077066 16087.2 199302 113819 0.02 0.64 0
11000 0.0750632 16094.9 199619 45619 0.02 0.64 0
20000 0.0787795 16163.8 202359 14864 0.02 0.64 0
30000 0.0748009 16240.4 205499 99031 0.02 0.64 0
40000 0.0786834 16316.9 208583 7560 0.02 0.64 0
50000 0.0776026 16393.5 211558 115731 0.02 0.64 0
60000 0.0784549 16469.9 214637 19042 0.02 0.64 0
70000 0.0757973 16546.5 217664 77783 0.02 0.64 0
80000 0.0752962 16623 220570 47395 0.02 0.64 0
90000 0.0785866 16699.5 223616 121601 0.02 0.64 0
100000 0.0722469 16776 226720 129777 0.02 0.64 0
110000 0.0774086 16852.6 229821 69809 0.02 0.64 0
1 0.0677673 17010.5 236140 110292 0.02 0.63 0
2 0.0711644 17010.5 236140 8618 0.02 0.63 0
3 0.0728265 17010.5 236140 51819 0.02 0.63 0
4 0.0702101 17010.5 236141 17196 0.02 0.63 0
5 0.0729178 17010.5 236141 25125 0.02 0.63 0
6 0.0718532 17010.5 236141 25344 0.02 0.63 0
7 0.0719362 17010.5 236142 63760 0.02 0.63 0
8 0.0706177 17010.5 236142 32134 0.02 0.63 0
9 0.0714092 17010.6 236142 127722 0.02 0.63 0
10 0.0683106 17010.6 236142 15057 0.02 0.63 0
20 0.0704703 17010.6 236145 105825 0.02 0.63 0
30 0.0721298 17010.7 236148 57525 0.02 0.63 0
40 0.067018 17010.8 236152 81201 0.02 0.63 0
50 0.0646108 17010.8 236155 70736 0.02 0.63 0
60 0.0664274 17010.9 236158 82611 0.02 0.63 0
70 0.0679217 17011 236162 33517 0.02 0.63 0
80 0.0632804 17011 236166 58367 0.02 0.63 0
90 0.0653938 17011.1 236170 32094 0.02 0.63 0
100 0.0696776 17011.2 236174 38326 0.02 0.63 0
110 0.0679967 17011.2 236177 60470 0.02 0.63 0
200 0.0665326 17011.8 236204 29555 0.02 0.63 0
300 0.0670227 17012.5 236239 126160 0.02 0.63 0
400 0.0700836 17013.2 236271 84614 0.02 0.63 0
500 0.0633673 17013.8 236303 27212 0.02 0.63 0
600 0.0663636 17014.5 236334 15599 0.02 0.63 0
700 0.0647098 17015.2 236364 76167 0.02 0.63 0
800 0.0686128 17015.8 236396 107383 0.02 0.63 0
900 0.0674964 17016.5 236428 130420 0.02 0.63 0
1000 0.0684253 17017.2 236453 119129 0.02 0.63 0
1100 0.0667462 17017.8 236486 127395 0.02 0.63 0
2000 0.0643539 17023.8 236779 56032 0.02 0.63 0
3000 0.0654179 17030.4 237084 103190 0.02 0.63 0
4000 0.0683496 17037.1 237403 102929 0.02 0.63 0
5000 0.069718 17043.7 237691 78843 0.02 0.63 0
6000 0.0660442 17050.3 237994 38396 0.02 0.63 0
7000 0.0661494 17056.9 238304 17341 0.02 0.63 0
8000 0.0690476 17063.5 238599 36724 0.02 0.63 0
9000 0.0641836 17070.1 238872 130898 0.02 0.63 0
10000 0.066237 17076.8 239172 8911 0.02 0.63 0
11000 0.0646497 17083.4 239494 25919 0.02 0.63 0
20000 0.0678415 17143 242218 109076 0.02 0.63 0
30000 0.0636199 17209.2 245317 124098 0.02 0.63 0
40000 0.0668879 17275.4 248386 102838 0.02 0.63 0
50000 0.0666454 17341.5 251341 8362 0.02 0.63 0
60000 0.0674994 17407.6 254402 77402 0.02 0.63 0
70000 0.0652706 17473.8 257431 99482 0.02 0.63 0
80000 0.0647166 17539.8 260478 68500 0.02 0.63 0
90000 0.0677076 17606 263626 59571 0.02 0.63 0
100000 0.0612985 17672.2 266716 108323 0.02 0.63 0
110000 0.0658111 17738.4 269856 9490 0.02 0.63 0
1 0.0548378 18010.5 282585 120526 0.02 0.62 0
2 0.0595494 18010.5 282585 32274 0.02 0.62 0
3 0.0622732 18010.5 282586 92876 0.02 0.62 0
4 0.059922 18010.5 282586 18570 0.02 0.62 0
5 0.0621708 18010.5 282586 131810 0.02 0.62 0
6 0.0613308 18010.5 282587 23316 0.02 0.62 0
7 0.0629484 18010.5 282587 58178 0.02 0.62 0
8 0.0620298 18010.5 282588 100034 0.02 0.62 0
9 0.0631279 18010.5 282588 130871 0.02 0.62 0
10 0.0595367 18010.6 282589 14054 0.02 0.62 0
20 0.0601314 18010.6 282593 63531 0.02 0.62 0
30 0.0626457 18010.7 282596 99048 0.02 0.62 0
40 0.0586894 18010.7 282598 9366 0.02 0.62 0
50 0.0568884 18010.8 282602 116323 0.02 0.62 0
60 0.0565721 18010.8 282606 1827 0.02 0.62 0
70 0.057462 18010.9 282609 12988 0.02 0.62 0
80 0.0557477 18011 282613 118500 0.02 0.62 0
90 0.0574744 18011 282616 119822 0.02 0.62 0
100 0.061012 18011.1 282620 78857 0.02 0.62 0
110 0.0574684 18011.1 282624 100990 0.02 0.62 0
200 0.0571502 18011.7 282654 110032 0.02 0.62 0
300 0.0567677 18012.2 282690 70119 0.02 0.62 0
400 0.0612462 18012.8 282721 78772 0.02 0.62 0
500 0.0531686 18013.4 282752 835 0.02 0.62 0
600 0.0563689 18013.9 282784 8908 0.02 0.62 0
700 0.0563104 18014.5 282815 132563 0.02 0.62 0
800 0.058867 18015.1 282846 54728 0.02 0.62 0
900 0.0580615 18015.7 282873 106082 0.02 0.62 0
1000 0.0582627 18016.2 282905 15556 0.02 0.62 0
1100 0.0577083 18016.8 282935 21720 0.02 0.62 0
2000 0.0546491 18021.9 283212 121675 0.02 0.62 0
3000 0.0546712 18027.6 283486 101564 0.02 0.62 0
4000 0.0591218 18033.2 283774 33704 0.02 0.62 0
5000 0.0600839 18038.9 284051 69797 0.02 0.62 0
6000 0.0573531 18044.6 284343 57140 0.02 0.62 0
7000 0.0558573 18050.2 284614 87497 0.02 0.62 0
8000 0.0594673 18055.9 284884 121918 0.02 0.62 0
9000 0.0558982 18061.5 285133 66827 0.02 0.62 0
10000 0.0559973 18067.2 285398 29632 0.02 0.62 0
11000 0.0557818 18072.8 285709 35739 0.02 0.62 0
20000 0.0587696 18123.8 288346 73741 0.02 0.62 0
30000 0.0547789 18180.4 291399 110745 0.02 0.62 0
40000 0.0572673 18237 294484 55487 0.02 0.62 0
50000 0.0572849 18293.5 297431 96284 0.02 0.62 0
60000 0.0579587 18350.1 300453 7811 0.02 0.62 0
70000 0.0563034 18406.7 303522 65125 0.02 0.62 0
80000 0.0550788 18463.1 306575 38687 0.02 0.62 0
90000 0.0601877 18519.6 309710 94494 0.02 0.62 0
100000 0.0515326 18576.1 312742 74389 0.02 0.62 0
110000 0.0560662 18632.6 315854 58819 0.02 0.62 0
1 0.0456253 19010.5 336973 118454 0.02 0.61 0
2 0.0506276 19010.5 336973 10500 0.02 0.61 0
3 0.0534057 19010.5 336973 125787 0.02 0.61 0
4 0.0512 19010.5 336974 124828 0.02 0.61 0
5 0.0533271 19010.5 336974 120268 0.02 0.61 0
6 0.0517719 19010.5 336975 2596 0.02 0.61 0
7 0.0529594 19010.5 336975 14472 0.02 0.61 0
8 0.0523137 19010.5 336975 8169 0.02 0.61 0
9 0.053257 19010.5 336975 70173 0.02 0.61 0
10 0.0507089 19010.6 336976 53417 0.02 0.61 0
20 0.0534309 19010.6 336978 37214 0.02 0.61 0
30 0.0541881 19010.7 336981 74227 0.02 0.61 0
40 0.0491574 19010.7 336984 82911 0.02 0.61 0
50 0.0474067 19010.8 336987 118237 0.02 0.61 0
60 0.0483071 19010.8 336990 74536 0.02 0.61 0
70 0.0514865 19010.9 336994 47934 0.02 0.61 0
80 0.0465125 19010.9 336998 118500 0.02 0.61 0
90 0.0485011 19011 337001 47993 0.02 0.61 0
100 0.0525231 19011 337004 32934 0.02 0.61 0
110 0.0489772 19011.1 337007 108885 0.02 0.61 0
200 0.0494022 19011.5 337035 80198 0.02 0.61 0
300 0.0465078 19012 337068 23341 0.02 0.61 0
400 0.0507502 19012.5 337094 49159 0.02 0.61 0
500 0.0442318 19012.9 337124 63161 0.02 0.61 0
600 0.0475458 19013.4 337156 92538 0.02 0.61 0
700 0.0475737 19013.9 337184 4350 0.02 0.61 0
800 0.0503416 19014.4 337212 48035 0.02 0.61 0
900 0.0488775 19014.9 337242 65638 0.02 0.61 0
1000 0.0502176 19015.4 337269 115150 0.02 0.61 0
1100 0.0482609 19015.8 337298 25739 0.02 0.61 0
2000 0.0456853 19020.1 337575 118206 0.02 0.61 0
3000 0.0462241 19024.9 337854 101564 0.02 0.61 0
4000 0.0496922 19029.7 338154 77958 0.02 0.61 0
5000 0.050062 19034.5 338441 46554 0.02 0.61 0
6000 0.0483752 19039.2 338708 15095 0.02 0.61 0
7000 0.0475737 19044 338995 56578 0.02 0.61 0
8000 0.0517959 19048.8 339297 13141 0.02 0.61 0
9000 0.0459713 19053.6 339564 36086 0.02 0.61 0
10000 0.0486719 19058.4 339826 66454 0.02 0.61 0
11000 0.0483858 19063.1 340113 52661 0.02 0.61 0
20000 0.0490909 19106 342792 44102 0.02 0.61 0
30000 0.0457652 19153.8 345792 32284 0.02 0.61 0
40000 0.0483413 19201.5 348653 21331 0.02 0.61 0
50000 0.0478115 19249.1 351578 87771 0.02 0.61 0
60000 0.0501891 19296.7 354602 63484 0.02 0.61 0
70000 0.0481455 19344.5 357702 1694 0.02 0.61 0
80000 0.0447729 19392.1 360696 37380 0.02 0.61 0
90000 0.0511449 19439.7 363911 103723 0.02 0.61 0
100000 0.0431874 19487.4 366941 55774 0.02 0.61 0
110000 0.0473186 19534.9 370122 25550 0.02 0.61 0
200000 0.0497712 19964.4 397503 106406 0.02 0.61 0
1 0.0379138 20010.5 400560 115887 0.02 0.6 0
2 0.0430176 20010.5 400561 71693 0.02 0.6 0
3 0.0455736 20010.5 400561 113524 0.02 0.6 0
4 0.0429758 20010.5 400562 126944 0.02 0.6 0
5 0.0454285 20010.5 400562 119716 0.02 0.6 0
6 0.0439327 20010.5 400562 49814 0.02 0.6 0
7 0.0444672 20010.5 400563 127307 0.02 0.6 0
8 0.0432373 20010.5 400563 116690 0.02 0.6 0
9 0.0450361 20010.5 400563 98006 0.02 0.6 0
10 0.0420308 20010.6 400563 31447 0.02 0.6 0
20 0.0437438 20010.6 400567 93848 0.02 0.6 0
30 0.0457425 20010.6 400569 51190 0.02 0.6 0
40 0.0410639 20010.7 400572 82911 0.02 0.6 0
50 0.0400601 20010.7 400576 52157 0.02 0.6 0
60 0.0395767 20010.8 400579 68606 0.02 0.6 0
70 0.0420693 20010.8 400582 99429 0.02 0.6 0
80 0.0375923 20010.8 400585 43164 0.02 0.6 0
90 0.0394439 20010.9 400588 52958 0.02 0.6 0
100 0.0439619 20010.9 400590 86073 0.02 0.6 0
110 0.042191 20011 400593 3073 0.02 0.6 0
200 0.0417265 20011.3 400623 14110 0.02 0.6 0
300 0.0408985 20011.7 400658 125247 0.02 0.6 0
400 0.0419642 20012.1 400685 59495 0.02 0.6 0
500 0.0369504 20012.5 400713 81214 0.02 0.6 0
600 0.0393133 20012.9 400742 39656 0.02 0.6 0
700 0.0385826 20013.3 400770 31088 0.02 0.6 0
800 0.0416048 20013.7 400799 115641 0.02 0.6 0
900 0.0407189 20014.1 400827 49526 0.02 0.6 0
1000 0.0415303 20014.5 400849 97409 0.02 0.6 0
1100 0.0403781 20014.9 400874 120038 0.02 0.6 0
2000 0.0372246 20018.5 401150 122710 0.02 0.6 0
3000 0.0374326 20022.5 401442 104189 0.02 0.6 0
4000 0.0424476 20026.5 401725 68079 0.02 0.6 0
5000 0.0428614 20030.4 401991 101990 0.02 0.6 0
6000 0.039908 20034.4 402249 81341 0.02 0.6 0
7000 0.0401208 20038.4 402524 72753 0.02 0.6 0
8000 0.043111 20042.4 402793 102964 0.02 0.6 0
9000 0.0381135 20046.4 403041 102009 0.02 0.6 0
10000 0.0414319 20050.4 403298 7902 0.02 0.6 0
11000 0.0379315 20054.3 403567 132027 0.02 0.6 0
20000 0.0411791 20090.1 405968 115979 0.02 0.6 0
30000 0.0379366 20129.9 408749 2604 0.02 0.6 0
40000 0.0407071 20169.7 411503 128332 0.02 0.6 0
50000 0.040257 20209.2 414172 59194 0.02 0.6 0
60000 0.0411311 20248.8 416986 40780 0.02 0.6 0
70000 0.0393018 20288.5 419843 1694 0.02 0.6 0
80000 0.0378204 20328.1 422545 55271 0.02 0.6 0
90000 0.0423822 20367.7 425423 61877 0.02 0.6 0
100000 0.0345927 20407.4 428262 107045 0.02 0.6 0
110000 0.0403117 20447 431190 25550 0.02 0.6 0
200000 0.0404272 20804.3 455872 74483 0.02 0.6 0
1 0.0303233 21010.5 470754 12691 0.02 0.59 0
2 0.0346294 21010.5 470754 131187 0.02 0.59 0
3 0.0365358 21010.5 470754 121215 0.02 0.59 0
4 0.0346537 21010.5 470754 65109 0.02 0.59 0
5 0.0375843 21010.5 470754 8145 0.02 0.59 0
6 0.0362717 21010.5 470755 84094 0.02 0.59 0
7 0.0371544 21010.5 470755 113115 0.02 0.59 0
8 0.0363964 21010.5 470755 16221 0.02 0.59 0
9 0.0383337 21010.5 470755 6247 0.02 0.59 0
10 0.0345437 21010.5 470755 39758 0.02 0.59 0
20 0.03594 21010.6 470757 51255 0.02 0.59 0
30 0.0392966 21010.6 470760 37133 0.02 0.59 0
40 0.0348175 21010.7 470762 38557 0.02 0.59 0
50 0.0330089 21010.7 470765 17146 0.02 0.59 0
60 0.0331592 21010.7 470768 117986 0.02 0.59 0
70 0.0345242 21010.8 470770 71190 0.02 0.59 0
80 0.0318769 21010.8 470773 83793 0.02 0.59 0
90 0.0327288 21010.8 470777 119822 0.02 0.59 0
100 0.0369828 21010.9 470781 87343 0.02 0.59 0
110 0.0338987 21010.9 470784 83337 0.02 0.59 0
200 0.0339138 21011.2 470807 127780 0.02 0.59 0
300 0.0325649 21011.5 470837 36231 0.02 0.59 0
400 0.0356508 21011.8 470864 66504 0.02 0.59 0
500 0.0305129 21012.2 470894 29745 0.02 0.59 0
600 0.0324354 21012.5 470921 127905 0.02 0.59 0
700 0.0307375 21012.8 470948 104466 0.02 0.59 0
800 0.0330357 21013.2 470976 87652 0.02 0.59 0
900 0.0335514 21013.5 471000 118229 0.02 0.59 0
1000 0.0348515 21013.8 471017 97409 0.02 0.59 0
1100 0.0326559 21014.1 471040 89678 0.02 0.59 0
2000 0.029899 21017.1 471284 78189 0.02 0.59 0
3000 0.0318286 21020.4 471559 124791 0.02 0.59 0
4000 0.0355619 21023.6 471814 65009 0.02 0.59 0
5000 0.0356426 21026.9 472067 54289 0.02 0.59 0
6000 0.0327902 21030.2 472336 24582 0.02 0.59 0
7000 0.0315056 21033.5 472594 122167 0.02 0.59 0
8000 0.0360176 21036.7 472855 70906 0.02 0.59 0
9000 0.0313726 21040 473107 76822 0.02 0.59 0
10000 0.032644 21043.3 473341 21786 0.02 0.59 0
11000 0.0316894 21046.5 473620 61358 0.02 0.59 0
20000 0.035194 21075.9 475775 124874 0.02 0.59 0
30000 0.0306639 21108.5 478250 2604 0.02 0.59 0
40000 0.033321 21141.1 480791 65183 0.02 0.59 0
50000 0.0328911 21173.5 483295 111870 0.02 0.59 0
60000 0.0342065 21206 485894 22669 0.02 0.59 0
70000 0.0323819 21238.5 488534 35494 0.02 0.59 0
80000 0.0315929 21271 491172 52835 0.02 0.59 0
90000 0.0355443 21303.6 493753 47106 0.02 0.59 0
100000 0.0274823 21336.1 496363 36311 0.02 0.59 0
110000 0.0325029 21368.6 499010 49567 0.02 0.59 0
200000 0.0335072 21661 521861 31106 0.02 0.59 0
300000 0.0333414 21985.7 547986 12170 0.02 0.59 0
1 0.0227075 22010.5 550024 11300 0.02 0.58 0
2 0.0267732 22010.5 550024 18299 0.02 0.58 0
3 0.0300776 22010.5 550025 65016 0.02 0.58 0
4 0.0283642 22010.5 550025 108552 0.02 0.58 0
5 0.0306885 22010.5 550025 4845 0.02 0.58 0
6 0.0295235 22010.5 550026 70638 0.02 0.58 0
7 0.0301889 22010.5 550026 82447 0.02 0.58 0
8 0.0296166 22010.5 550026 99559 0.02 0.58 0
9 0.0310841 22010.5 550026 128642 0.02 0.58 0
10 0.0283728 22010.5 550026 33371 0.02 0.58 0
20 0.0296841 22010.6 550029 110879 0.02 0.58 0
30 0.0320587 22010.6 550032 50879 0.02 0.58 0
40 0.0272929 22010.6 550035 80167 0.02 0.58 0
50 0.0274272 22010.7 550039 16478 0.02 0.58 0
60 0.0266609 22010.7 550042 1697 0.02 0.58 0
70 0.0288136 22010.7 550045 55905 0.02 0.58 0
80 0.0245356 22010.7 550049 72883 0.02 0.58 0
90 0.0265345 22010.8 550052 55708 0.02 0.58 0
100 0.0310665 22010.8 550054 87343 0.02 0.58 0
110 0.0277076 22010.8 550057 76608 0.02 0.58 0
200 0.0270354 22011.1 550081 14110 0.02 0.58 0
300 0.0268497 22011.3 550108 17130 0.02 0.58 0
400 0.0292533 22011.6 550134 110064 0.02 0.58 0
500 0.0238471 22011.9 550162 112690 0.02 0.58 0
600 0.0268126 22012.1 550192 41547 0.02 0.58 0
700 0.0252845 22012.4 550221 44189 0.02 0.58 0
800 0.0275555 22012.7 550248 110177 0.02 0.58 0
900 0.0272844 22012.9 550272 58454 0.02 0.58 0
1000 0.0284298 22013.2 550295 97409 0.02 0.58 0
1100 0.0268484 22013.5 550319 111339 0.02 0.58 0
2000 0.0237415 22015.8 550563 125464 0.02 0.58 0
3000 0.0252437 22018.5 550812 7610 0.02 0.58 0
4000 0.0284688 22021.1 551047 7834 0.02 0.58 0
5000 0.0292668 22023.7 551286 35542 0.02 0.58 0
6000 0.0261747 22026.4 551537 48526 0.02 0.58 0
7000 0.0250819 22029 551772 90303 0.02 0.58 0
8000 0.0293381 22031.6 552020 102964 0.02 0.58 0
9000 0.023747 22034.3 552256 45479 0.02 0.58 0
10000 0.0268169 22036.9 552476 594 0.02 0.58 0
11000 0.0262589 22039.5 552706 76086 0.02 0.58 0
20000 0.0278673 22063.3 554667 78279 0.02 0.58 0
30000 0.0248444 22089.7 556906 74192 0.02 0.58 0
40000 0.0263065 22116 559114 108015 0.02 0.58 0
50000 0.0267735 22142.2 561445 111870 0.02 0.58 0
60000 0.0282729 22168.4 563700 98095 0.02 0.58 0
70000 0.0271185 22194.6 566030 14994 0.02 0.58 0
80000 0.0255988 22220.9 568296 59930 0.02 0.58 0
90000 0.029664 22247.2 570645 6229 0.02 0.58 0
100000 0.0202523 22273.5 572979 52530 0.02 0.58 0
110000 0.0264477 22299.8 575396 77375 0.02 0.58 0
200000 0.027368 22535.9 596476 31106 0.02 0.58 0
300000 0.0278529 22798.2 620508 5315 0.02 0.58 0
1 0.0160012 23010.5 640039 11422 0.02 0.57 0
2 0.0214501 23010.5 640039 97878 0.02 0.57 0
3 0.0244301 23010.5 640039 42695 0.02 0.57 0
4 0.0223818 23010.5 640040 111851 0.02 0.57 0
5 0.0244498 23010.5 640040 112526 0.02 0.57 0
6 0.0236023 23010.5 640040 54969 0.02 0.57 0
7 0.0248509 23010.5 640040 53528 0.02 0.57 0
8 0.0241719 23010.5 640040 33215 0.02 0.57 0
9 0.0252511 23010.5 640040 440 0.02 0.57 0
10 0.0228063 23010.5 640041 78644 0.02 0.57 0
20 0.0245524 23010.6 640043 99669 0.02 0.57 0
30 0.026829 23010.6 640044 127223 0.02 0.57 0
40 0.0225277 23010.6 640045 15771 0.02 0.57 0
50 0.0203347 23010.6 640048 116720 0.02 0.57 0
60 0.0208462 23010.7 640050 9837 0.02 0.57 0
70 0.0231508 23010.7 640052 50777 0.02 0.57 0
80 0.0192994 23010.7 640056 125823 0.02 0.57 0
90 0.0204415 23010.7 640059 50054 0.02 0.57 0
100 0.0250365 23010.7 640062 129177 0.02 0.57 0
110 0.0222445 23010.8 640063 64782 0.02 0.57 0
200 0.0220263 23011 640078 88931 0.02 0.57 0
300 0.021143 23011.2 640100 92218 0.02 0.57 0
400 0.0238436 23011.4 640123 59639 0.02 0.57 0
500 0.0182528 23011.6 640144 13056 0.02 0.57 0
600 0.0207175 23011.8 640164 54574 0.02 0.57 0
700 0.0196467 23012 640184 111692 0.02 0.57 0
800 0.0219968 23012.2 640210 31847 0.02 0.57 0
900 0.0219181 23012.4 640233 25929 0.02 0.57 0
1000 0.0225133 23012.7 640254 97409 0.02 0.57 0
1100 0.0219187 23012.9 640274 54597 0.02 0.57 0
2000 0.0193856 23014.8 640463 104093 0.02 0.57 0
3000 0.0191988 23016.9 640674 88385 0.02 0.57 0
4000 0.0237641 23019 640902 102538 0.02 0.57 0
5000 0.0229622 23021.1 641120 75173 0.02 0.57 0
6000 0.0204733 23023.2 641308 3550 0.02 0.57 0
7000 0.019987 23025.3 641531 115706 0.02 0.57 0
8000 0.0237458 23027.4 641733 30005 0.02 0.57 0
9000 0.0190388 23029.5 641935 32674 0.02 0.57 0
10000 0.0217739 23031.6 642141 93403 0.02 0.57 0
11000 0.0202309 23033.7 642349 69119 0.02 0.57 0
20000 0.0228338 23052.6 644129 58638 0.02 0.57 0
30000 0.0191111 23073.7 646132 27556 0.02 0.57 0
40000 0.0222084 23094.6 648075 27965 0.02 0.57 0
50000 0.0207936 23115.6 650215 44153 0.02 0.57 0
60000 0.0222781 23136.5 652250 100155 0.02 0.57 0
70000 0.0211675 23157.4 654370 39089 0.02 0.57 0
80000 0.019671 23178.3 656405 60499 0.02 0.57 0
90000 0.0243106 23199.3 658494 107220 0.02 0.57 0
100000 0.0157533 23220.3 660659 119050 0.02 0.57 0
110000 0.021327 23241.3 662896 97089 0.02 0.57 0
200000 0.0219877 23429.6 682015 31106 0.02 0.57 0
300000 0.0223116 23639.1 704078 5315 0.02 0.57 0
400000 0.0197211 23848.5 725178 125414 0.02 0.57 0
1 0.0100314 24010.5 742470 973 0.02 0.56 0
2 0.0151234 24010.5 742470 78607 0.02 0.56 0
3 0.0180899 24010.5 742471 125735 0.02 0.56 0
4 0.0159444 24010.5 742471 326 0.02 0.56 0
5 0.0184825 24010.5 742472 73795 0.02 0.56 0
6 0.0180348 24010.5 742472 110688 0.02 0.56 0
7 0.0187256 24010.5 742472 82606 0.02 0.56 0
8 0.0182583 24010.5 742472 78941 0.02 0.56 0
9 0.0199515 24010.5 742473 49667 0.02 0.56 0
10 0.017124 24010.5 742473 31779 0.02 0.56 0
20 0.0198748 24010.6 742476 72513 0.02 0.56 0
30 0.0213621 24010.6 742479 9512 0.02 0.56 0
40 0.0176605 24010.6 742481 117776 0.02 0.56 0
50 0.0161565 24010.6 742483 38615 0.02 0.56 0
60 0.0160202 24010.6 742485 104191 0.02 0.56 0
70 0.0186075 24010.6 742487 30775 0.02 0.56 0
80 0.0143718 24010.7 742488 86554 0.02 0.56 0
90 0.0169587 24010.7 742490 107803 0.02 0.56 0
100 0.0216634 24010.7 742491 125731 0.02 0.56 0
110 0.0185074 24010.7 742492 2714 0.02 0.56 0
200 0.0172761 24010.9 742507 5018 0.02 0.56 0
300 0.0163631 24011 742524 99932 0.02 0.56 0
400 0.0198802 24011.2 742545 50280 0.02 0.56 0
500 0.013626 24011.4 742564 59915 0.02 0.56 0
600 0.0162459 24011.5 742583 62738 0.02 0.56 0
700 0.0156786 24011.7 742603 76167 0.02 0.56 0
800 0.0182372 24011.9 742627 4449 0.02 0.56 0
900 0.0176709 24012 742646 13822 0.02 0.56 0
1000 0.0188829 24012.2 742661 97409 0.02 0.56 0
1100 0.0180454 24012.4 742677 54137 0.02 0.56 0
2000 0.0144438 24013.9 742828 54861 0.02 0.56 0
3000 0.0152277 24015.5 743021 26263 0.02 0.56 0
4000 0.0188283 24017.2 743218 71995 0.02 0.56 0
5000 0.0196329 24018.9 743397 61232 0.02 0.56 0
6000 0.0168113 24020.5 743571 83763 0.02 0.56 0
7000 0.0155545 24022.2 743752 82326 0.02 0.56 0
8000 0.0195687 24023.8 743917 30005 0.02 0.56 0
9000 0.015101 24025.5 744086 41654 0.02 0.56 0
10000 0.0173073 24027.2 744250 120759 0.02 0.56 0
11000 0.0168538 24028.8 744429 69119 0.02 0.56 0
20000 0.0185498 24043.8 746077 83897 0.02 0.56 0
30000 0.0146626 24060.4 747794 96402 0.02 0.56 0
40000 0.0171808 24077 749521 81281 0.02 0.56 0
50000 0.0168181 24093.5 751342 30184 0.02 0.56 0
60000 0.0177118 24109.9 753116 6731 0.02 0.56 0
70000 0.0164733 24126.4 755005 81390 0.02 0.56 0
80000 0.0156272 24142.8 756795 112245 0.02 0.56 0
90000 0.0198385 24159.2 758618 103723 0.02 0.56 0
100000 0.010575 24175.7 760686 62095 0.02 0.56 0
110000 0.0171014 24192.2 762620 55602 0.02 0.56 0
200000 0.0160781 24339.9 779243 31106 0.02 0.56 0
300000 0.0180922 24504.1 798223 38985 0.02 0.56 0
400000 0.0149941 24668.6 817177 125414 0.02 0.56 0
500000 0.0171387 24833 836197 65273 0.02 0.56 0
600000 0.0145052 24997.3 855443 97164 0.02 0.56 0
1 0.00543032 25010.5 857021 118906 0.02 0.55 0
2 0.0106143 25010.5 857021 68609 0.02 0.55 0
3 0.0132431 25010.5 857022 79412 0.02 0.55 0
4 0.0109983 25010.5 857022 78621 0.02 0.55 0
5 0.0139424 25010.5 857022 127505 0.02 0.55 0
6 0.0133416 25010.5 857022 110688 0.02 0.55 0
7 0.0141666 25010.5 857022 76376 0.02 0.55 0
8 0.0140623 25010.5 857022 55743 0.02 0.55 0
9 0.0152857 25010.5 857023 107956 0.02 0.55 0
10 0.011984 25010.5 857023 104072 0.02 0.55 0
20 0.014493 25010.5 857024 112698 0.02 0.55 0
30 0.0175641 25010.6 857027 13833 0.02 0.55 0
40 0.0138336 25010.6 857028 82490 0.02 0.55 0
50 0.0121072 25010.6 857029 33782 0.02 0.55 0
60 0.0125738 25010.6 857031 125625 0.02 0.55 0
70 0.0144792 25010.6 857032 42645 0.02 0.55 0
80 0.0107777 25010.6 857033 28038 0.02 0.55 0
90 0.0130015 25010.6 857035 50667 0.02 0.55 0
100 0.0177584 25010.7 857036 35 0.02 0.55 0
110 0.015088 25010.7 857038 2714 0.02 0.55 0
200 0.0137121 25010.8 857055 68265 0.02 0.55 0
300 0.0131642 25010.9 857076 131410 0.02 0.55 0
400 0.0153391 25011.1 857099 125061 0.02 0.55 0
500 0.00997058 25011.2 857120 130057 0.02 0.55 0
600 0.0127668 25011.3 857140 58370 0.02 0.55 0
700 0.011561 25011.4 857160 97012 0.02 0.55 0
800 0.0139046 25011.6 857178 96577 0.02 0.55 0
900 0.0128028 25011.7 857199 36811 0.02 0.55 0
1000 0.0146931 25011.8 857216 80774 0.02 0.55 0
1100 0.0135517 25012 857235 17160 0.02 0.55 0
2000 0.0107869 25013.1 857395 54861 0.02 0.55 0
3000 0.010378 25014.4 857583 36944 0.02 0.55 0
4000 0.0153091 25015.7 857752 22952 0.02 0.55 0
5000 0.0147824 25016.9 857925 96403 0.02 0.55 0
6000 0.0126087 25018.2 858091 64634 0.02 0.55 0
7000 0.0109686 25019.5 858263 73067 0.02 0.55 0
8000 0.0155964 25020.7 858436 30005 0.02 0.55 0
9000 0.0113442 25022 858606 4589 0.02 0.55 0
10000 0.013715 25023.3 858790 9146 0.02 0.55 0
11000 0.0124424 25024.6 858953 69119 0.02 0.55 0
20000 0.0146323 25036 860410 58638 0.02 0.55 0
30000 0.0110698 25048.8 862015 67339 0.02 0.55 0
40000 0.0136637 25061.6 863601 99420 0.02 0.55 0
50000 0.0125327 25074.3 865265 68137 0.02 0.55 0
60000 0.0144724 25087 866906 63187 0.02 0.55 0
70000 0.0132165 25099.7 868610 65125 0.02 0.55 0
80000 0.012018 25112.3 870255 60087 0.02 0.55 0
90000 0.0152996 25125 871920 22154 0.02 0.55 0
100000 0.00708498 25137.7 873633 9283 0.02 0.55 0
110000 0.0128433 25150.4 875272 57941 0.02 0.55 0
200000 0.0128631 25264.6 889968 31106 0.02 0.55 0
300000 0.0146833 25391.6 906252 5315 0.02 0.55 0
400000 0.0117255 25518.3 922185 70264 0.02 0.55 0
500000 0.0133583 25645 938252 78897 0.02 0.55 0
600000 0.0108632 25772 954402 73085 0.02 0.55 0
700000 0.012923 25898.5 970933 113254 0.02 0.55 0
1 0.00173499 26010.5 985519 114848 0.02 0.54 0
2 0.00723373 26010.5 985519 65956 0.02 0.54 0
3 0.0101552 26010.5 985520 125187 0.02 0.54 0
4 0.00758942 26010.5 985520 32588 0.02 0.54 0
5 0.0109335 26010.5 985520 127505 0.02 0.54 0
6 0.0101306 26010.5 985520 110688 0.02 0.54 0
7 0.0109425 26010.5 985520 28099 0.02 0.54 0
8 0.0102311 26010.5 985520 29922 0.02 0.54 0
9 0.0120652 26010.5 985520 2981 0.02 0.54 0
10 0.00909868 26010.5 985520 74047 0.02 0.54 0
20 0.0115046 26010.5 985521 62893 0.02 0.54 0
30 0.0144256 26010.6 985523 28856 0.02 0.54 0
40 0.0107197 26010.6 985525 72394 0.02 0.54 0
50 0.00915279 26010.6 985527 115218 0.02 0.54 0
60 0.00936243 26010.6 985529 66624 0.02 0.54 0
70 0.0118814 26010.6 985529 107282 0.02 0.54 0
80 0.00764187 26010.6 985531 72883 0.02 0.54 0
90 0.0103633 26010.6 985533 125372 0.02 0.54 0
100 0.0141915 26010.6 985534 68371 0.02 0.54 0
110 0.0121415 26010.6 985536 2714 0.02 0.54 0
200 0.010471 26010.7 985551 112021 0.02 0.54 0
300 0.00949179 26010.8 985564 125247 0.02 0.54 0
400 0.0125012 26010.9 985580 116812 0.02 0.54 0
500 0.00613076 26011 985593 130057 0.02 0.54 0
600 0.0100776 26011.1 985612 32785 0.02 0.54 0
700 0.00874903 26011.2 985625 98209 0.02 0.54 0
800 0.0107606 26011.3 985638 4449 0.02 0.54 0
900 0.0108684 26011.4 985652 36811 0.02 0.54 0
1000 0.0117396 26011.5 985659 97409 0.02 0.54 0
1100 0.0105037 26011.6 985668 32819 0.02 0.54 0
2000 0.00811823 26012.5 985784 54861 0.02 0.54 0
3000 0.00741065 26013.5 985917 103331 0.02 0.54 0
4000 0.0122349 26014.5 986029 8575 0.02 0.54 0
5000 0.0117803 26015.4 986160 96403 0.02 0.54 0
6000 0.00941922 26016.4 986275 132617 0.02 0.54 0
7000 0.00865815 26017.4 986407 52462 0.02 0.54 0
8000 0.0128576 26018.3 986566 30005 0.02 0.54 0
9000 0.00771549 26019.3 986697 19018 0.02 0.54 0
10000 0.0105151 26020.3 986833 40179 0.02 0.54 0
11000 0.00914344 26021.2 986958 69119 0.02 0.54 0
20000 0.0110685 26030 988166 123280 0.02 0.54 0
30000 0.00847979 26039.7 989382 32162 0.02 0.54 0
40000 0.0102618 26049.4 990676 13284 0.02 0.54 0
50000 0.00986892 26059.1 991993 67218 0.02 0.54 0
60000 0.0120359 26068.8 993300 29575 0.02 0.54 0
70000 0.0105171 26078.4 994641 75738 0.02 0.54 0
80000 0.00867168 26088.1 995904 126179 0.02 0.54 0
90000 0.0120669 26097.7 997143 6229 0.02 0.54 0
100000 0.00411011 26107.3 998474 120734 0.02 0.54 0
110000 0.0098698 26117 999718 97089 0.02 0.54 0
200000 0.0101826 26203.7 1.01118e+06 31106 0.02 0.54 0
300000 0.0110585 26300.2 1.02419e+06 5315 0.02 0.54 0
400000 0.00803953 26396.4 1.03763e+06 105899 0.02 0.54 0
500000 0.00977183 26492.6 1.05072e+06 101505 0.02 0.54 0
600000 0.00832217 26588.8 1.06422e+06 127164 0.02 0.54 0
700000 0.00971053 26684.7 1.0774e+06 11864 0.02 0.54 0
800000 0.00799995 26781.1 1.09084e+06 131978 0.02 0.54 0
900000 0.0108745 26877.4 1.10414e+06 20284 0.02 0.54 0
1000000 0.0101971 26973.4 1.11781e+06 86205 0.02 0.54 0
1 -0.000709813 26973.4 1.11781e+06 75759 0.02 0.53 0
2 0.00443528 26973.4 1.11781e+06 17169 0.02 0.53 0
3 0.00765684 26973.4 1.11781e+06 39273 0.02 0.53 0
4 0.00576982 26973.4 1.11781e+06 16005 0.02 0.53 0
5 0.00834112 26973.4 1.11781e+06 127505 0.02 0.53 0
6 0.00789066 26973.4 1.11781e+06 110688 0.02 0.53 0
7 0.00886988 26973.4 1.11781e+06 86266 0.02 0.53 0
8 0.0080408 26973.4 1.11781e+06 48833 0.02 0.53 0
9 0.00983304 26973.4 1.11781e+06 113076 0.02 0.53 0
10 0.00733448 26973.4 1.11781e+06 73480 0.02 0.53 0
20 0.00882329 26973.4 1.11781e+06 85893 0.02 0.53 0
30 0.0121077 26973.4 1.11782e+06 13833 0.02 0.53 0
40 0.00799648 26973.4 1.11782e+06 33195 0.02 0.53 0
50 0.00694374 26973.4 1.11782e+06 92177 0.02 0.53 0
60 0.00712959 26973.4 1.11782e+06 66624 0.02 0.53 0
70 0.00890467 26973.4 1.11782e+06 86077 0.02 0.53 0
80 0.00449111 26973.4 1.11782e+06 51121 0.02 0.53 0
90 0.00672448 26973.4 1.11782e+06 91006 0.02 0.53 0
100 0.01179 26973.4 1.11782e+06 21095 0.02 0.53 0
110 0.00879765 26973.4 1.11782e+06 2714 0.02 0.53 0
200 0.00785435 26973.5 1.11783e+06 10174 0.02 0.53 0
300 0.00710396 26973.6 1.11785e+06 132047 0.02 0.53 0
400 0.0102581 26973.7 1.11787e+06 74274 0.02 0.53 0
500 0.00375882 26973.7 1.11788e+06 76940 0.02 0.53 0
600 0.00736237 26973.8 1.11789e+06 83130 0.02 0.53 0
700 0.00623445 26973.9 1.1179e+06 76167 0.02 0.53 0
800 0.00829568 26974 1.11792e+06 4449 0.02 0.53 0
900 0.00841631 26974 1.11793e+06 13822 0.02 0.53 0
1000 0.00927748 26974.1 1.11794e+06 97409 0.02 0.53 0
1100 0.00846945 26974.2 1.11795e+06 114845 0.02 0.53 0
2000 0.00573545 26974.8 1.11805e+06 28043 0.02 0.53 0
3000 0.0049569 26975.6 1.11816e+06 92668 0.02 0.53 0
4000 0.00964629 26976.3 1.11826e+06 24619 0.02 0.53 0
5000 0.00933161 26977 1.11837e+06 65929 0.02 0.53 0
6000 0.00718605 26977.8 1.11848e+06 88999 0.02 0.53 0
7000 0.00669301 26978.5 1.1186e+06 60618 0.02 0.53 0
8000 0.0103704 26979.2 1.11871e+06 102964 0.02 0.53 0
9000 0.00570341 26980 1.11882e+06 19018 0.02 0.53 0
10000 0.00748149 26980.7 1.11893e+06 25755 0.02 0.53 0
11000 0.00654137 26981.4 1.11903e+06 89449 0.02 0.53 0
20000 0.00924569 26987.9 1.12007e+06 33586 0.02 0.53 0
30000 0.00560119 26995.2 1.12106e+06 51946 0.02 0.53 0
40000 0.00822876 27002.5 1.12203e+06 35074 0.02 0.53 0
50000 0.00793682 27009.7 1.12305e+06 70834 0.02 0.53 0
60000 0.00923348 27016.9 1.1241e+06 63187 0.02 0.53 0
70000 0.007607 27024.1 1.12516e+06 75738 0.02 0.53 0
80000 0.00613644 27031.3 1.12625e+06 56147 0.02 0.53 0
90000 0.0100189 27038.5 1.12725e+06 6229 0.02 0.53 0
100000 0.00136618 27045.8 1.12831e+06 120734 0.02 0.53 0
110000 0.00738754 27053 1.12934e+06 97089 0.02 0.53 0
200000 0.00809596 27117.8 1.13893e+06 31106 0.02 0.53 0
300000 0.00891545 27189.7 1.14998e+06 5315 0.02 0.53 0
400000 0.00565721 27261.6 1.16096e+06 86567 0.02 0.53 0
500000 0.00760912 27333.5 1.17219e+06 54193 0.02 0.53 0
600000 0.00545226 27405.2 1.18368e+06 25580 0.02 0.53 0
700000 0.00727609 27476.9 1.19439e+06 24160 0.02 0.53 0
800000 0.00550707 27548.7 1.20553e+06 76556 0.02 0.53 0
900000 0.00879944 27620.4 1.2169e+06 94560 0.02 0.53 0
1000000 0.00774281 27692.2 1.22859e+06 100190 0.02 0.53 0
1 -0.00254201 27692.2 1.22859e+06 54693 0.02 0.52 0
2 0.00241049 27692.2 1.22859e+06 17169 0.02 0.52 0
3 0.00536986 27692.2 1.22859e+06 48457 0.02 0.52 0
4 0.00284202 27692.2 1.22859e+06 79263 0.02 0.52 0
5 0.00563098 27692.2 1.22859e+06 127505 0.02 0.52 0
6 0.00532176 27692.2 1.22859e+06 110688 0.02 0.52 0
7 0.00634941 27692.2 1.22859e+06 87866 0.02 0.52 0
8 0.00562155 27692.2 1.22859e+06 42599 0.02 0.52 0
9 0.00717251 27692.2 1.22859e+06 22034 0.02 0.52 0
10 0.00473111 27692.2 1.22859e+06 100916 0.02 0.52 0
20 0.00729606 27692.2 1.22859e+06 45081 0.02 0.52 0
30 0.0100407 27692.2 1.22859e+06 16349 0.02 0.52 0
40 0.00589707 27692.2 1.22859e+06 26990 0.02 0.52 0
50 0.0047157 27692.2 1.22859e+06 79177 0.02 0.52 0
60 0.00520811 27692.2 1.22859e+06 82381 0.02 0.52 0
70 0.00688522 27692.2 1.22859e+06 99438 0.02 0.52 0
80 0.00331799 27692.2 1.22859e+06 85839 0.02 0.52 0
90 0.00533657 27692.2 1.2286e+06 54611 0.02 0.52 0
100 0.00990607 27692.3 1.2286e+06 100322 0.02 0.52 0
110 0.00713271 27692.3 1.2286e+06 2714 0.02 0.52 0
200 0.00614834 27692.3 1.22861e+06 103141 0.02 0.52 0
300 0.00583424 27692.4 1.22862e+06 125247 0.02 0.52 0
400 0.00821081 27692.4 1.22863e+06 105236 0.02 0.52 0
500 0.00213816 27692.5 1.22864e+06 75735 0.02 0.52 0
600 0.00514768 27692.5 1.22866e+06 53497 0.02 0.52 0
700 0.00441077 27692.6 1.22867e+06 76167 0.02 0.52 0
800 0.00619109 27692.6 1.22868e+06 4449 0.02 0.52 0
900 0.00609128 27692.7 1.2287e+06 13822 0.02 0.52 0
1000 0.00709812 27692.8 1.2287e+06 97409 0.02 0.52 0
1100 0.00666089 27692.8 1.22871e+06 125690 0.02 0.52 0
2000 0.00396575 27693.3 1.2288e+06 54861 0.02 0.52 0
3000 0.00355005 27693.8 1.22889e+06 110273 0.02 0.52 0
4000 0.00781186 27694.4 1.22898e+06 24872 0.02 0.52 0
5000 0.00764563 27694.9 1.22907e+06 96403 0.02 0.52 0
6000 0.00557418 27695.5 1.22917e+06 59119 0.02 0.52 0
7000 0.00452847 27696 1.22926e+06 7266 0.02 0.52 0
8000 0.00823734 27696.5 1.22934e+06 102964 0.02 0.52 0
9000 0.00366109 27697.1 1.22942e+06 19018 0.02 0.52 0
10000 0.00606408 27697.6 1.22952e+06 25755 0.02 0.52 0
11000 0.00501222 27698.2 1.22961e+06 69119 0.02 0.52 0
20000 0.00709399 27703 1.23048e+06 33586 0.02 0.52 0
30000 0.00331726 27708.3 1.23136e+06 51946 0.02 0.52 0
40000 0.00598914 27713.7 1.23217e+06 35074 0.02 0.52 0
50000 0.00577559 27719 1.23304e+06 81418 0.02 0.52 0
60000 0.00730857 27724.3 1.23389e+06 50449 0.02 0.52 0
70000 0.00593758 27729.7 1.2348e+06 75738 0.02 0.52 0
80000 0.004402 27735 1.23572e+06 56147 0.02 0.52 0
90000 0.00793148 27740.3 1.2366e+06 6229 0.02 0.52 0
100000 -0.000298781 27745.7 1.23751e+06 21395 0.02 0.52 0
110000 0.00525378 27751 1.23845e+06 97089 0.02 0.52 0
200000 0.00586112 27798.9 1.24645e+06 31106 0.02 0.52 0
300000 0.00689181 27852.1 1.25585e+06 5315 0.02 0.52 0
400000 0.00406286 27905.3 1.26488e+06 86567 0.02 0.52 0
500000 0.00627274 27958.6 1.27442e+06 54193 0.02 0.52 0
600000 0.00376329 28011.7 1.28395e+06 127164 0.02 0.52 0
700000 0.00551573 28064.8 1.2931e+06 87542 0.02 0.52 0
800000 0.00355247 28118 1.3023e+06 46611 0.02 0.52 0
900000 0.00581252 28171.1 1.31172e+06 81559 0.02 0.52 0
1000000 0.00541414 28224.3 1.32161e+06 37584 0.02 0.52 0
1 -0.00490874 28224.3 1.32161e+06 75759 0.02 0.51 0
2 0.000433051 28224.3 1.32161e+06 17169 0.02 0.51 0
3 0.00356927 28224.3 1.32161e+06 108422 0.02 0.51 0
4 0.00109367 28224.3 1.32161e+06 29200 0.02 0.51 0
5 0.00419046 28224.3 1.32161e+06 123552 0.02 0.51 0
6 0.00337022 28224.3 1.32161e+06 110688 0.02 0.51 0
7 0.0044322 28224.3 1.32161e+06 87866 0.02 0.51 0
8 0.00340623 28224.3 1.32161e+06 62281 0.02 0.51 0
9 0.00518879 28224.3 1.32161e+06 69999 0.02 0.51 0
10 0.00254076 28224.3 1.32161e+06 5373 0.02 0.51 0
20 0.00548101 28224.3 1.32161e+06 45081 0.02 0.51 0
30 0.00876009 28224.3 1.32161e+06 13833 0.02 0.51 0
40 0.00427613 28224.3 1.32161e+06 33195 0.02 0.51 0
50 0.00263064 28224.3 1.32161e+06 79177 0.02 0.51 0
60 0.00343022 28224.3 1.32162e+06 65231 0.02 0.51 0
70 0.00579268 28224.3 1.32162e+06 46992 0.02 0.51 0
80 0.0012642 28224.3 1.32162e+06 72883 0.02 0.51 0
90 0.00381731 28224.3 1.32162e+06 30266 0.02 0.51 0
100 0.00851496 28224.3 1.32162e+06 87818 0.02 0.51 0
110 0.00509542 28224.3 1.32162e+06 2714 0.02 0.51 0
200 0.00396397 28224.4 1.32163e+06 29498 0.02 0.51 0
300 0.00446384 28224.4 1.32164e+06 125247 0.02 0.51 0
400 0.00688602 28224.5 1.32165e+06 20153 0.02 0.51 0
500 0.000398319 28224.5 1.32165e+06 72084 0.02 0.51 0
600 0.00409725 28224.5 1.32166e+06 129715 0.02 0.51 0
700 0.00277254 28224.6 1.32167e+06 76167 0.02 0.51 0
800 0.00506484 28224.6 1.32168e+06 4449 0.02 0.51 0
900 0.00491674 28224.7 1.32169e+06 13822 0.02 0.51 0
1000 0.00571036 28224.7 1.32169e+06 97409 0.02 0.51 0
1100 0.00496333 28224.7 1.3217e+06 45357 0.02 0.51 0
2000 0.00224079 28225.1 1.32178e+06 54861 0.02 0.51 0
3000 0.00168795 28225.5 1.32185e+06 128694 0.02 0.51 0
4000 0.00656202 28225.9 1.32193e+06 67802 0.02 0.51 0
5000 0.00647327 28226.3 1.322e+06 96403 0.02 0.51 0
6000 0.00369996 28226.7 1.32208e+06 4452 0.02 0.51 0
7000 0.00336411 28227.1 1.32216e+06 61592 0.02 0.51 0
8000 0.00633167 28227.5 1.32225e+06 102964 0.02 0.51 0
9000 0.00190464 28227.8 1.32232e+06 19018 0.02 0.51 0
10000 0.0046206 28228.2 1.32239e+06 25755 0.02 0.51 0
11000 0.00396491 28228.6 1.32247e+06 115040 0.02 0.51 0
20000 0.00606745 28232.2 1.32316e+06 100285 0.02 0.51 0
30000 0.00237228 28236.1 1.32388e+06 49168 0.02 0.51 0
40000 0.00465245 28240 1.32459e+06 31195 0.02 0.51 0
50000 0.0040537 28243.9 1.32528e+06 97366 0.02 0.51 0
60000 0.0058481 28247.8 1.326e+06 37432 0.02 0.51 0
70000 0.00423588 28251.7 1.32677e+06 65125 0.02 0.51 0
80000 0.00310316 28255.6 1.32754e+06 56147 0.02 0.51 0
90000 0.00655557 28259.6 1.32829e+06 22154 0.02 0.51 0
100000 -0.00146739 28263.5 1.32904e+06 120734 0.02 0.51 0
110000 0.00459208 28267.4 1.32983e+06 122791 0.02 0.51 0
200000 0.00457183 28302.5 1.33646e+06 31106 0.02 0.51 0
300000 0.00520168 28341.3 1.34408e+06 5315 0.02 0.51 0
400000 0.00286297 28380.4 1.35159e+06 78477 0.02 0.51 0
500000 0.00459339 28419.3 1.35952e+06 127107 0.02 0.51 0
600000 0.00195953 28458.2 1.36718e+06 127164 0.02 0.51 0
700000 0.00443326 28497 1.37495e+06 87390 0.02 0.51 0
800000 0.00187144 28535.9 1.38297e+06 130649 0.02 0.51 0
900000 0.00478582 28574.8 1.39085e+06 94560 0.02 0.51 0
1000000 0.0037209 28613.7 1.3984e+06 99726 0.02 0.51 0
1 -0.00660195 28613.7 1.3984e+06 75759 0.02 0.5 0
2 -0.0011733 28613.7 1.3984e+06 17169 0.02 0.5 0
3 0.00243548 28613.7 1.3984e+06 9852 0.02 0.5 0
4 -0.000332177 28613.7 1.3984e+06 29200 0.02 0.5 0
5 0.00319613 28613.7 1.3984e+06 127505 0.02 0.5 0
6 0.00238511 28613.7 1.3984e+06 110688 0.02 0.5 0
7 0.00323908 28613.7 1.3984e+06 87866 0.02 0.5 0
8 0.00245591 28613.7 1.3984e+06 29922 0.02 0.5 0
9 0.00426075 28613.7 1.3984e+06 69999 0.02 0.5 0
10 0.00150042 28613.7 1.3984e+06 5373 0.02 0.5 0
20 0.00406099 28613.7 1.3984e+06 45081 0.02 0.5 0
30 0.00731271 28613.7 1.3984e+06 13833 0.02 0.5 0
40 0.00311157 28613.7 1.3984e+06 33195 0.02 0.5 0
50 0.00204426 28613.7 1.3984e+06 79177 0.02 0.5 0
60 0.00223369 28613.8 1.3984e+06 82381 0.02 0.5 0
70 0.00462946 28613.8 1.3984e+06 46992 0.02 0.5 0
80 0.000284281 28613.8 1.3984e+06 72883 0.02 0.5 0
90 0.00253472 28613.8 1.3984e+06 39145 0.02 0.5 0
100 0.00691988 28613.8 1.3984e+06 77017 0.02 0.5 0
110 0.00413923 28613.8 1.3984e+06 2714 0.02 0.5 0
200 0.00286864 28613.8 1.39841e+06 91898 0.02 0.5 0
300 0.00322604 28613.8 1.39841e+06 125247 0.02 0.5 0
400 0.00545766 28613.9 1.39842e+06 90010 0.02 0.5 0
500 -0.000604978 28613.9 1.39843e+06 130057 0.02 0.5 0
600 0.00282258 28613.9 1.39844e+06 129715 0.02 0.5 0
700 0.00189171 28613.9 1.39844e+06 76167 0.02 0.5 0
800 0.00421751 28614 1.39845e+06 4449 0.02 0.5 0
900 0.00340619 28614 1.39846e+06 13822 0.02 0.5 0
1000 0.00447646 28614 1.39846e+06 97409 0.02 0.5 0
1100 0.00420056 28614.1 1.39847e+06 16821 0.02 0.5 0
2000 0.00121966 28614.3 1.39852e+06 54861 0.02 0.5 0
3000 0.000961621 28614.6 1.39857e+06 87138 0.02 0.5 0
4000 0.00540581 28614.9 1.39863e+06 3636 0.02 0.5 0
5000 0.0050253 28615.2 1.39868e+06 14025 0.02 0.5 0
6000 0.00267036 28615.5 1.39874e+06 89812 0.02 0.5 0
7000 0.00173028 28615.7 1.3988e+06 121071 0.02 0.5 0
8000 0.00538255 28616 1.39886e+06 102964 0.02 0.5 0
9000 0.00103857 28616.3 1.39892e+06 59872 0.02 0.5 0
10000 0.00402786 28616.6 1.39899e+06 25755 0.02 0.5 0
11000 0.00289908 28616.9 1.39904e+06 115040 0.02 0.5 0
20000 0.00471753 28619.4 1.39959e+06 42698 0.02 0.5 0
30000 0.00129768 28622.3 1.40017e+06 2068 0.02 0.5 0
40000 0.00347125 28625.1 1.40076e+06 69198 0.02 0.5 0
50000 0.00269294 28627.9 1.40133e+06 81418 0.02 0.5 0
60000 0.00490763 28630.7 1.40189e+06 63187 0.02 0.5 0
70000 0.00314235 28633.5 1.40249e+06 65125 0.02 0.5 0
80000 0.00209133 28636.4 1.4031e+06 56147 0.02 0.5 0
90000 0.00538719 28639.2 1.40372e+06 6229 0.02 0.5 0
100000 -0.0025339 28642 1.40435e+06 120734 0.02 0.5 0
110000 0.00305526 28644.8 1.40495e+06 98085 0.02 0.5 0
200000 0.00317599 28670.2 1.41036e+06 31106 0.02 0.5 0
300000 0.00425454 28698.4 1.41635e+06 5315 0.02 0.5 0
400000 0.00129859 28726.5 1.42227e+06 58153 0.02 0.5 0
500000 0.00365999 28754.7 1.42831e+06 42060 0.02 0.5 0
600000 0.000850472 28782.8 1.43412e+06 123346 0.02 0.5 0
700000 0.003204 28810.8 1.43988e+06 87390 0.02 0.5 0
800000 0.000422964 28839 1.44584e+06 131978 0.02 0.5 0
900000 0.00377257 28867.2 1.45191e+06 94560 0.02 0.5 0
1000000 0.00295968 28895.3 1.45807e+06 121837 0.02 0.5 0
1 -0.00727603 28895.3 1.45807e+06 75759 0.02 0.49 0
2 -0.00196138 28895.3 1.45807e+06 17169 0.02 0.49 0
3 0.00144222 28895.3 1.45807e+06 58656 0.02 0.49 0
4 -0.00112082 28895.3 1.45807e+06 45825 0.02 0.49 0
5 0.00201652 28895.3 1.45807e+06 127505 0.02 0.49 0
6 0.00130549 28895.3 1.45807e+06 110688 0.02 0.49 0
7 0.00223637 28895.3 1.45807e+06 87866 0.02 0.49 0
8 0.00142033 28895.3 1.45807e+06 29922 0.02 0.49 0
9 0.00338048 28895.3 1.45807e+06 22034 0.02 0.49 0
10 0.000711198 28895.3 1.45807e+06 63030 0.02 0.49 0
20 0.00315895 28895.3 1.45807e+06 45081 0.02 0.49 0
30 0.00660124 28895.3 1.45807e+06 13833 0.02 0.49 0
40 0.00222254 28895.3 1.45807e+06 33195 0.02 0.49 0
50 0.00119674 28895.3 1.45807e+06 79177 0.02 0.49 0
60 0.00147999 28895.3 1.45807e+06 71671 0.02 0.49 0
70 0.00392635 28895.3 1.45807e+06 12824 0.02 0.49 0
80 -0.00110552 28895.3 1.45807e+06 86554 0.02 0.49 0
90 0.00165393 28895.3 1.45808e+06 38705 0.02 0.49 0
100 0.0061859 28895.3 1.45808e+06 100322 0.02 0.49 0
110 0.00335831 28895.3 1.45808e+06 2714 0.02 0.49 0
200 0.00219511 28895.3 1.45808e+06 70237 0.02 0.49 0
300 0.00242892 28895.3 1.45809e+06 125247 0.02 0.49 0
400 0.00482896 28895.4 1.4581e+06 90010 0.02 0.49 0
500 -0.00152385 28895.4 1.4581e+06 130057 0.02 0.49 0
600 0.00183767 28895.4 1.45811e+06 129715 0.02 0.49 0
700 0.00109926 28895.4 1.45811e+06 76167 0.02 0.49 0
800 0.00320328 28895.5 1.45812e+06 96878 0.02 0.49 0
900 0.00251037 28895.5 1.45812e+06 13822 0.02 0.49 0
1000 0.00357288 28895.5 1.45813e+06 97409 0.02 0.49 0
1100 0.00337884 28895.5 1.45813e+06 16821 0.02 0.49 0
2000 0.000390616 28895.7 1.45817e+06 25745 0.02 0.49 0
3000 -0.000124288 28895.9 1.45822e+06 92668 0.02 0.49 0
4000 0.00456563 28896.1 1.45826e+06 76107 0.02 0.49 0
5000 0.00412914 28896.3 1.45832e+06 14025 0.02 0.49 0
6000 0.00202059 28896.5 1.45836e+06 89812 0.02 0.49 0
7000 0.000987567 28896.7 1.45841e+06 112179 0.02 0.49 0
8000 0.00471184 28896.9 1.45845e+06 30005 0.02 0.49 0
9000 0.000101075 28897.1 1.45848e+06 37363 0.02 0.49 0
10000 0.00293311 28897.3 1.45853e+06 25755 0.02 0.49 0
11000 0.001895 28897.5 1.45857e+06 69119 0.02 0.49 0
20000 0.00369766 28899.4 1.45898e+06 33586 0.02 0.49 0
30000 4.17318e-05 28901.4 1.45944e+06 2068 0.02 0.49 0
40000 0.00281454 28903.4 1.45993e+06 69198 0.02 0.49 0
50000 0.00227707 28905.5 1.46037e+06 58230 0.02 0.49 0
60000 0.00441952 28907.5 1.46079e+06 63187 0.02 0.49 0
70000 0.00234587 28909.5 1.46117e+06 65125 0.02 0.49 0
80000 0.000792189 28911.5 1.46163e+06 56147 0.02 0.49 0
90000 0.00456967 28913.6 1.46207e+06 6229 0.02 0.49 0
100000 -0.00356781 28915.6 1.46253e+06 120734 0.02 0.49 0
110000 0.00196074 28917.6 1.463e+06 35910 0.02 0.49 0
200000 0.00216299 28935.8 1.4671e+06 31106 0.02 0.49 0
300000 0.00312323 28955.9 1.47166e+06 5315 0.02 0.49 0
400000 0.0006393 28976.1 1.47602e+06 29146 0.02 0.49 0
500000 0.00309008 28996.2 1.48081e+06 121119 0.02 0.49 0
600000 0.000152794 29016.3 1.48521e+06 127164 0.02 0.49 0
700000 0.0024978 29036.2 1.48946e+06 127455 0.02 0.49 0
800000 -0.000400163 29056.4 1.49405e+06 101969 0.02 0.49 0
900000 0.00286474 29076.6 1.49857e+06 94560 0.02 0.49 0
1000000 0.00234377 29096.8 1.5034e+06 99726 0.02 0.49 0
1 -0.0080875 29096.8 1.5034e+06 75759 0.02 0.48 0
2 -0.00267744 29096.8 1.5034e+06 17169 0.02 0.48 0
3 0.000753829 29096.8 1.5034e+06 58656 0.02 0.48 0
4 -0.00188988 29096.8 1.5034e+06 29200 0.02 0.48 0
5 0.00132236 29096.8 1.5034e+06 127505 0.02 0.48 0
6 0.000653604 29096.8 1.5034e+06 110688 0.02 0.48 0
7 0.00151357 29096.8 1.5034e+06 123131 0.02 0.48 0
8 0.00105979 29096.8 1.5034e+06 29922 0.02 0.48 0
9 0.0025185 29096.8 1.5034e+06 22034 0.02 0.48 0
10 -3.45826e-05 29096.8 1.5034e+06 59333 0.02 0.48 0
20 0.00248784 29096.8 1.5034e+06 45081 0.02 0.48 0
30 0.00584197 29096.8 1.5034e+06 13833 0.02 0.48 0
40 0.00145342 29096.8 1.5034e+06 100990 0.02 0.48 0
50 -0.000271786 29096.8 1.5034e+06 79177 0.02 0.48 0
60 0.0010401 29096.9 1.5034e+06 66624 0.02 0.48 0
70 0.0029994 29096.9 1.5034e+06 12824 0.02 0.48 0
80 -0.00180571 29096.9 1.5034e+06 72883 0.02 0.48 0
90 0.00121368 29096.9 1.5034e+06 54611 0.02 0.48 0
100 0.00554106 29096.9 1.5034e+06 100322 0.02 0.48 0
110 0.00254437 29096.9 1.5034e+06 2714 0.02 0.48 0
200 0.00151649 29096.9 1.50341e+06 10174 0.02 0.48 0
300 0.00159782 29096.9 1.50341e+06 4120 0.02 0.48 0
400 0.00398469 29096.9 1.50342e+06 90010 0.02 0.48 0
500 -0.00206169 29096.9 1.50342e+06 130057 0.02 0.48 0
600 0.00142769 29096.9 1.50343e+06 129715 0.02 0.48 0
700 0.000698281 29096.9 1.50343e+06 76167 0.02 0.48 0
800 0.00261657 29097 1.50343e+06 4449 0.02 0.48 0
900 0.00193754 29097 1.50344e+06 13822 0.02 0.48 0
1000 0.00322845 29097 1.50344e+06 97409 0.02 0.48 0
1100 0.00251877 29097 1.50344e+06 83434 0.02 0.48 0
2000 -0.000546795 29097.1 1.50347e+06 54861 0.02 0.48 0
3000 -0.000496257 29097.3 1.50351e+06 128694 0.02 0.48 0
4000 0.00419513 29097.4 1.50354e+06 83675 0.02 0.48 0
5000 0.00367162 29097.6 1.50358e+06 14025 0.02 0.48 0
6000 0.00144076 29097.7 1.5036e+06 89812 0.02 0.48 0
7000 0.000252053 29097.9 1.50363e+06 7266 0.02 0.48 0
8000 0.00444171 29098 1.50366e+06 102964 0.02 0.48 0
9000 -0.000326357 29098.1 1.5037e+06 126564 0.02 0.48 0
10000 0.00208396 29098.3 1.50374e+06 25755 0.02 0.48 0
11000 0.001274 29098.4 1.50377e+06 69119 0.02 0.48 0
20000 0.00333151 29099.7 1.50406e+06 33586 0.02 0.48 0
30000 -0.000187557 29101.2 1.5044e+06 27556 0.02 0.48 0
40000 0.00208013 29102.6 1.50475e+06 9714 0.02 0.48 0
50000 0.00161657 29104 1.50506e+06 58230 0.02 0.48 0
60000 0.00357045 29105.5 1.50536e+06 63187 0.02 0.48 0
70000 0.00182354 29106.9 1.50567e+06 65125 0.02 0.48 0
80000 0.000356696 29108.4 1.50601e+06 56147 0.02 0.48 0
90000 0.00382251 29109.8 1.50636e+06 6229 0.02 0.48 0
100000 -0.00457803 29111.2 1.50671e+06 130201 0.02 0.48 0
110000 0.00146217 29112.7 1.50708e+06 35910 0.02 0.48 0
200000 0.00139423 29125.5 1.51017e+06 31106 0.02 0.48 0
300000 0.00262774 29139.8 1.51355e+06 5315 0.02 0.48 0
400000 -2.93277e-06 29154.2 1.51676e+06 97012 0.02 0.48 0
500000 0.00266683 29168.3 1.52021e+06 121119 0.02 0.48 0
600000 -0.000491208 29182.5 1.52348e+06 127164 0.02 0.48 0
700000 0.00174201 29196.6 1.52662e+06 8613 0.02 0.48 0
800000 -0.000826799 29210.9 1.52989e+06 101969 0.02 0.48 0
900000 0.00228585 29225.1 1.53301e+06 94560 0.02 0.48 0
1000000 0.00164381 29239.4 1.53662e+06 61469 0.02 0.48 0
1 -0.00895262 29239.4 1.53662e+06 117486 0.02 0.47 0
2 -0.00322331 29239.4 1.53662e+06 17169 0.02 0.47 0
3 0.00020329 29239.4 1.53662e+06 58656 0.02 0.47 0
4 -0.00217833 29239.4 1.53662e+06 29200 0.02 0.47 0
5 0.000799565 29239.4 1.53662e+06 127505 0.02 0.47 0
6 -8.23672e-05 29239.4 1.53662e+06 110688 0.02 0.47 0
7 0.000748207 29239.4 1.53662e+06 87866 0.02 0.47 0
8 0.000345443 29239.4 1.53662e+06 29922 0.02 0.47 0
9 0.00226295 29239.4 1.53662e+06 24476 0.02 0.47 0
10 -0.000609921 29239.4 1.53662e+06 5373 0.02 0.47 0
20 0.0021353 29239.4 1.53662e+06 45081 0.02 0.47 0
30 0.00488924 29239.4 1.53662e+06 13833 0.02 0.47 0
40 0.00107213 29239.4 1.53662e+06 33195 0.02 0.47 0
50 -0.000531686 29239.4 1.53662e+06 79177 0.02 0.47 0
60 0.000379492 29239.4 1.53662e+06 71671 0.02 0.47 0
70 0.00244825 29239.4 1.53662e+06 121882 0.02 0.47 0
80 -0.00237186 29239.4 1.53662e+06 72883 0.02 0.47 0
90 0.000662102 29239.4 1.53662e+06 54611 0.02 0.47 0
100 0.005151 29239.4 1.53662e+06 132617 0.02 0.47 0
110 0.00226802 29239.4 1.53662e+06 2714 0.02 0.47 0
200 0.00102222 29239.5 1.53663e+06 10174 0.02 0.47 0
300 0.00121913 29239.5 1.53663e+06 125247 0.02 0.47 0
400 0.00386983 29239.5 1.53663e+06 90010 0.02 0.47 0
500 -0.00243039 29239.5 1.53663e+06 130057 0.02 0.47 0
600 0.00114641 29239.5 1.53664e+06 129715 0.02 0.47 0
700 -9.51562e-05 29239.5 1.53664e+06 76167 0.02 0.47 0
800 0.0022817 29239.5 1.53665e+06 4449 0.02 0.47 0
900 0.00163865 29239.5 1.53665e+06 13822 0.02 0.47 0
1000 0.00302319 29239.5 1.53665e+06 97409 0.02 0.47 0
1100 0.0022431 29239.5 1.53665e+06 16821 0.02 0.47 0
2000 -0.000679845 29239.6 1.53667e+06 54861 0.02 0.47 0
3000 -0.00112322 29239.7 1.53669e+06 87138 0.02 0.47 0
4000 0.0034381 29239.8 1.53672e+06 83675 0.02 0.47 0
5000 0.00300303 29239.9 1.53674e+06 14025 0.02 0.47 0
6000 0.000940994 29240 1.53676e+06 89812 0.02 0.47 0
7000 -4.11634e-05 29240.1 1.53678e+06 38860 0.02 0.47 0
8000 0.00380414 29240.2 1.5368e+06 102964 0.02 0.47 0
9000 -0.000881801 29240.4 1.53683e+06 37363 0.02 0.47 0
10000 0.00150362 29240.5 1.53686e+06 126030 0.02 0.47 0
11000 0.000901617 29240.6 1.53688e+06 69119 0.02 0.47 0
20000 0.00284604 29241.5 1.5371e+06 33586 0.02 0.47 0
30000 -0.000702985 29242.5 1.53735e+06 51946 0.02 0.47 0
40000 0.00172939 29243.5 1.5376e+06 69198 0.02 0.47 0
50000 0.00117876 29244.5 1.53785e+06 58230 0.02 0.47 0
60000 0.00319265 29245.5 1.53807e+06 63187 0.02 0.47 0
70000 0.00160314 29246.5 1.53829e+06 65125 0.02 0.47 0
80000 -0.000281263 29247.5 1.53854e+06 56147 0.02 0.47 0
90000 0.00377428 29248.5 1.53878e+06 6229 0.02 0.47 0
100000 -0.00495659 29249.5 1.539e+06 120734 0.02 0.47 0
110000 0.000861855 29250.5 1.53925e+06 35910 0.02 0.47 0
200000 0.00128177 29259.6 1.5415e+06 31106 0.02 0.47 0
300000 0.00214329 29269.5 1.54393e+06 5315 0.02 0.47 0
400000 -0.000626636 29279.5 1.54632e+06 90499 0.02 0.47 0
500000 0.00235321 29289.5 1.54873e+06 121119 0.02 0.47 0
600000 -0.000870366 29299.4 1.55101e+06 127164 0.02 0.47 0
700000 0.00160065 29309.2 1.55319e+06 8613 0.02 0.47 0
800000 -0.00100666 29319.3 1.55543e+06 101969 0.02 0.47 0
900000 0.00194241 29329.2 1.5578e+06 94560 0.02 0.47 0
1000000 0.00123076 29339.2 1.56031e+06 99726 0.02 0.47 0
1 -0.00939824 29339.2 1.56031e+06 75759 0.02 0.46 0
2 -0.00345029 29339.2 1.56031e+06 17169 0.02 0.46 0
3 -0.000375829 29339.2 1.56031e+06 58656 0.02 0.46 0
4 -0.00267332 29339.2 1.56031e+06 23362 0.02 0.46 0
5 0.000284522 29339.2 1.56031e+06 127505 0.02 0.46 0
6 -0.000535384 29339.2 1.56031e+06 110688 0.02 0.46 0
7 0.000583998 29339.2 1.56031e+06 87866 0.02 0.46 0
8 4.07305e-06 29339.2 1.56031e+06 122191 0.02 0.46 0
9 0.00181071 29339.2 1.56031e+06 24476 0.02 0.46 0
10 -0.00103906 29339.2 1.56031e+06 5373 0.02 0.46 0
20 0.00181699 29339.2 1.56031e+06 45081 0.02 0.46 0
30 0.00481325 29339.2 1.56031e+06 13833 0.02 0.46 0
40 0.000693049 29339.2 1.56031e+06 33195 0.02 0.46 0
50 -0.000723875 29339.2 1.56031e+06 79177 0.02 0.46 0
60 0.00018352 29339.2 1.56032e+06 71671 0.02 0.46 0
70 0.00223687 29339.2 1.56031e+06 74081 0.02 0.46 0
80 -0.00242406 29339.2 1.56032e+06 72883 0.02 0.46 0
90 0.00046746 29339.2 1.56032e+06 129241 0.02 0.46 0
100 0.00484898 29339.2 1.56032e+06 100322 0.02 0.46 0
110 0.0018907 29339.2 1.56032e+06 2714 0.02 0.46 0
200 0.000847233 29339.2 1.56032e+06 10174 0.02 0.46 0
300 0.000929711 29339.2 1.56032e+06 125247 0.02 0.46 0
400 0.00335466 29339.2 1.56032e+06 90010 0.02 0.46 0
500 -0.00298551 29339.2 1.56033e+06 130057 0.02 0.46 0
600 0.00128081 29339.2 1.56033e+06 129715 0.02 0.46 0
700 -0.000212817 29339.2 1.56033e+06 76167 0.02 0.46 0
800 0.00198934 29339.2 1.56033e+06 4449 0.02 0.46 0
900 0.00108914 29339.3 1.56034e+06 13822 0.02 0.46 0
1000 0.00258545 29339.3 1.56034e+06 97409 0.02 0.46 0
1100 0.00187705 29339.3 1.56034e+06 16821 0.02 0.46 0
2000 -0.000882986 29339.3 1.56035e+06 54861 0.02 0.46 0
3000 -0.00120827 29339.4 1.56036e+06 128694 0.02 0.46 0
4000 0.00318706 29339.5 1.56038e+06 3636 0.02 0.46 0
5000 0.00278038 29339.5 1.5604e+06 110076 0.02 0.46 0
6000 0.000717802 29339.6 1.56041e+06 89812 0.02 0.46 0
7000 -0.000474832 29339.7 1.56042e+06 121071 0.02 0.46 0
8000 0.00366433 29339.8 1.56044e+06 102964 0.02 0.46 0
9000 -0.00114593 29339.8 1.56046e+06 37363 0.02 0.46 0
10000 0.00146533 29339.9 1.56048e+06 25755 0.02 0.46 0
11000 0.000671397 29340 1.5605e+06 69119 0.02 0.46 0
20000 0.00257686 29340.6 1.56064e+06 33586 0.02 0.46 0
30000 -0.000926761 29341.3 1.56081e+06 51946 0.02 0.46 0
40000 0.00170488 29342 1.561e+06 31363 0.02 0.46 0
50000 0.000970069 29342.7 1.56115e+06 58230 0.02 0.46 0
60000 0.00299799 29343.4 1.56132e+06 63187 0.02 0.46 0
70000 0.00107013 29344.1 1.56146e+06 65125 0.02 0.46 0
80000 -0.000387189 29344.8 1.56162e+06 56147 0.02 0.46 0
90000 0.00325888 29345.5 1.56182e+06 6229 0.02 0.46 0
100000 -0.00520337 29346.2 1.56197e+06 120734 0.02 0.46 0
110000 0.000963583 29346.9 1.56214e+06 35910 0.02 0.46 0
200000 0.00125277 29353.1 1.56374e+06 31106 0.02 0.46 0
300000 0.00179423 29359.9 1.56551e+06 5315 0.02 0.46 0
400000 -0.000772402 29366.8 1.56731e+06 97012 0.02 0.46 0
500000 0.00164895 29373.7 1.56902e+06 121119 0.02 0.46 0
600000 -0.000979635 29380.5 1.57073e+06 127164 0.02 0.46 0
700000 0.00110068 29387.3 1.57233e+06 8613 0.02 0.46 0
800000 -0.00134596 29394.2 1.57404e+06 101969 0.02 0.46 0
900000 0.001704 29401.1 1.57571e+06 94560 0.02 0.46 0
1000000 0.000718048 29407.9 1.57747e+06 99726 0.02 0.46 0
